%!PS-Adobe-3.0 EPSF-3.0
%%Creator: cairo 1.10.2 (http://cairographics.org)
%%CreationDate: Wed Jul 30 08:47:34 2014
%%Pages: 1
%%BoundingBox: 0 -1 305 390
%%DocumentData: Clean7Bit
%%LanguageLevel: 2
%%EndComments
%%BeginProlog
/cairo_eps_state save def
/dict_count countdictstack def
/op_count count 1 sub def
userdict begin
/q { gsave } bind def
/Q { grestore } bind def
/cm { 6 array astore concat } bind def
/w { setlinewidth } bind def
/J { setlinecap } bind def
/j { setlinejoin } bind def
/M { setmiterlimit } bind def
/d { setdash } bind def
/m { moveto } bind def
/l { lineto } bind def
/c { curveto } bind def
/h { closepath } bind def
/re { exch dup neg 3 1 roll 5 3 roll moveto 0 rlineto
      0 exch rlineto 0 rlineto closepath } bind def
/S { stroke } bind def
/f { fill } bind def
/f* { eofill } bind def
/n { newpath } bind def
/W { clip } bind def
/W* { eoclip } bind def
/BT { } bind def
/ET { } bind def
/pdfmark where { pop globaldict /?pdfmark /exec load put }
    { globaldict begin /?pdfmark /pop load def /pdfmark
    /cleartomark load def end } ifelse
/BDC { mark 3 1 roll /BDC pdfmark } bind def
/EMC { mark /EMC pdfmark } bind def
/cairo_store_point { /cairo_point_y exch def /cairo_point_x exch def } def
/Tj { show currentpoint cairo_store_point } bind def
/TJ {
  {
    dup
    type /stringtype eq
    { show } { -0.001 mul 0 cairo_font_matrix dtransform rmoveto } ifelse
  } forall
  currentpoint cairo_store_point
} bind def
/cairo_selectfont { cairo_font_matrix aload pop pop pop 0 0 6 array astore
    cairo_font exch selectfont cairo_point_x cairo_point_y moveto } bind def
/Tf { pop /cairo_font exch def /cairo_font_matrix where
      { pop cairo_selectfont } if } bind def
/Td { matrix translate cairo_font_matrix matrix concatmatrix dup
      /cairo_font_matrix exch def dup 4 get exch 5 get cairo_store_point
      /cairo_font where { pop cairo_selectfont } if } bind def
/Tm { 2 copy 8 2 roll 6 array astore /cairo_font_matrix exch def
      cairo_store_point /cairo_font where { pop cairo_selectfont } if } bind def
/g { setgray } bind def
/rg { setrgbcolor } bind def
/d1 { setcachedevice } bind def
%%EndProlog
%%Page: 1 1
%%BeginPageSetup
%%PageBoundingBox: 0 -1 305 390
%%EndPageSetup
q 0 -1 305 391 rectclip q
0 389.63 305 -390 re W n
0 g
264.141 267.388 m 281.766 285.986 l 286.219 290.685 286.02 298.099 
281.324 302.552 c 267.148 315.99 l 262.453 320.439 255.035 320.24 
250.586 315.544 c 230.734 294.607 l 216.008 303.486 199.664 309.927 
182.258 313.412 c 182.258 338.853 l 205.062 338.853 l 211.535 338.853 
216.777 344.099 216.777 350.568 c 216.777 377.912 l 216.777 384.384 
211.531 389.63 205.062 389.63 c 104.48 389.63 l 98.008 389.63 92.762 
384.384 92.762 377.912 c 92.762 350.568 l 92.762 344.099 98.008 338.853 
104.48 338.853 c 122.625 338.853 l 122.625 313.49 l 122.824 313.49 l 
105.609 310.099 89.422 303.81 74.809 295.13 c 53.023 315.787 l 48.324 
320.236 40.906 320.041 36.457 315.341 c 23.02 301.166 l 18.57 296.47 
18.766 289.052 23.465 284.599 c 41.035 267.943 l 15.598 240.709 0 
204.169 0 164.052 c 0 94.474 46.887 35.646 110.719 17.498 c 110.719 
8.294 l 110.719 3.712 114.434 0.001 119.016 0.001 c 190.211 0.001 l 
194.797 0.001 198.508 3.716 198.508 8.294 c 198.508 18.884 l 259.996 
38.49 304.66 96.15 304.66 164.052 c 304.66 203.9 289.273 240.216 
264.141 267.388 c h
152.328 39.048 m 83.402 39.048 27.324 95.123 27.324 164.052 c 27.324 
232.978 83.402 289.056 152.328 289.056 c 221.254 289.056 277.332 
232.978 277.332 164.052 c 277.332 95.123 221.254 39.048 152.328 39.048 
c h
152.328 39.048 m f
214.707 206.224 m 210.477 211.216 161.238 188.353 148.508 182.326 c 
147.605 181.974 146.758 181.552 145.922 181.087 c 145.746 181.005 
145.484 180.876 145.484 180.876 c 145.496 180.861 l 139.387 177.306 
135.23 170.763 135.23 163.177 c 135.23 151.837 144.422 142.642 155.762 
142.642 c 160.293 142.642 164.438 144.158 167.832 146.634 c 167.852 
146.599 l 167.852 146.599 168.035 146.783 168.109 146.865 c 169.992 
148.294 171.645 150.005 172.945 151.986 c 185.836 165.751 218.613 
201.595 214.707 206.224 c h
214.707 206.224 m f
163.281 82.322 m 145.086 82.322 l 144.871 82.322 144.695 82.146 144.695 
81.931 c 144.695 55.63 l 144.695 55.412 144.871 55.24 145.086 55.24 c 
163.281 55.24 l 163.496 55.24 163.672 55.416 163.672 55.63 c 163.672 
81.931 l 163.672 82.146 163.496 82.322 163.281 82.322 c h
163.281 82.322 m f
79.551 157.4 m 79.551 175.193 l 79.551 175.408 79.375 175.584 79.16 
175.584 c 52.859 175.584 l 52.645 175.584 52.469 175.408 52.469 175.193 
c 52.469 157.4 l 52.469 157.181 52.645 157.009 52.859 157.009 c 79.16 
157.009 l 79.375 157.005 79.551 157.181 79.551 157.4 c h
79.551 157.4 m f
145.062 250.408 m 163.258 250.408 l 163.473 250.408 163.648 250.584 
163.648 250.798 c 163.648 277.103 l 163.648 277.318 163.473 277.494 
163.258 277.494 c 145.062 277.494 l 144.848 277.494 144.672 277.318 
144.672 277.103 c 144.672 250.798 l 144.672 250.584 144.848 250.408 
145.062 250.408 c h
145.062 250.408 m f
255.484 175.724 m 229.184 175.724 l 228.969 175.724 228.793 175.548 
228.793 175.334 c 228.793 157.541 l 228.793 157.326 228.969 157.15 
229.184 157.15 c 255.484 157.15 l 255.703 157.15 255.875 157.326 
255.875 157.541 c 255.875 175.334 l 255.875 175.548 255.703 175.724 
255.484 175.724 c h
255.484 175.724 m f
83.359 111.728 m 83.207 111.88 82.957 111.88 82.805 111.728 c 63.91 
92.834 l 63.836 92.759 63.797 92.662 63.797 92.556 c 63.797 92.455 
63.836 92.353 63.91 92.283 c 76.98 79.209 l 77.059 79.134 77.16 79.095 
77.258 79.095 c 77.359 79.095 77.457 79.134 77.535 79.209 c 96.43 
98.103 l 96.504 98.177 96.543 98.275 96.543 98.38 c 96.543 98.486 
96.504 98.584 96.43 98.658 c h
83.359 111.728 m f
84.102 244.986 m 83.949 245.138 83.699 245.138 83.547 244.986 c 70.766 
232.205 l 70.691 232.13 70.652 232.033 70.652 231.927 c 70.652 231.822 
70.691 231.724 70.766 231.65 c 89.66 212.755 l 89.738 212.677 89.836 
212.642 89.938 212.642 c 90.035 212.642 90.137 212.677 90.215 212.755 c 
102.996 225.541 l 103.07 225.611 103.109 225.712 103.109 225.814 c 
103.109 225.919 103.07 226.017 102.996 226.091 c h
84.102 244.986 m f
217.18 219.443 m 217.254 219.365 217.355 219.326 217.457 219.326 c 
217.555 219.326 217.656 219.365 217.73 219.443 c 236.625 238.337 l 
236.699 238.408 236.742 238.509 236.742 238.611 c 236.742 238.716 
236.699 238.818 236.625 238.888 c 223.555 251.959 l 223.402 252.111 
223.156 252.111 223.004 251.959 c 204.109 233.064 l 204.035 232.994 
203.992 232.892 203.992 232.791 c 203.992 232.685 204.035 232.587 
204.109 232.513 c h
217.18 219.443 m f
210.875 118.412 m 210.727 118.564 210.477 118.564 210.324 118.412 c 
197.543 105.63 l 197.391 105.478 197.391 105.232 197.543 105.08 c 
216.438 86.185 l 216.512 86.107 216.613 86.068 216.715 86.068 c 216.812 
86.068 216.914 86.107 216.988 86.185 c 229.773 98.966 l 229.926 99.119 
229.926 99.365 229.773 99.517 c h
210.875 118.412 m f
Q Q
showpage
%%Trailer
count op_count sub {pop} repeat
countdictstack dict_count sub {end} repeat
cairo_eps_state restore
%%EOF
