%!PS-Adobe-3.0 EPSF-3.0
%%Creator: cairo 1.10.2 (http://cairographics.org)
%%CreationDate: Wed Jul 30 08:47:25 2014
%%Pages: 1
%%BoundingBox: 0 -1 385 385
%%DocumentData: Clean7Bit
%%LanguageLevel: 2
%%EndComments
%%BeginProlog
/cairo_eps_state save def
/dict_count countdictstack def
/op_count count 1 sub def
userdict begin
/q { gsave } bind def
/Q { grestore } bind def
/cm { 6 array astore concat } bind def
/w { setlinewidth } bind def
/J { setlinecap } bind def
/j { setlinejoin } bind def
/M { setmiterlimit } bind def
/d { setdash } bind def
/m { moveto } bind def
/l { lineto } bind def
/c { curveto } bind def
/h { closepath } bind def
/re { exch dup neg 3 1 roll 5 3 roll moveto 0 rlineto
      0 exch rlineto 0 rlineto closepath } bind def
/S { stroke } bind def
/f { fill } bind def
/f* { eofill } bind def
/n { newpath } bind def
/W { clip } bind def
/W* { eoclip } bind def
/BT { } bind def
/ET { } bind def
/pdfmark where { pop globaldict /?pdfmark /exec load put }
    { globaldict begin /?pdfmark /pop load def /pdfmark
    /cleartomark load def end } ifelse
/BDC { mark 3 1 roll /BDC pdfmark } bind def
/EMC { mark /EMC pdfmark } bind def
/cairo_store_point { /cairo_point_y exch def /cairo_point_x exch def } def
/Tj { show currentpoint cairo_store_point } bind def
/TJ {
  {
    dup
    type /stringtype eq
    { show } { -0.001 mul 0 cairo_font_matrix dtransform rmoveto } ifelse
  } forall
  currentpoint cairo_store_point
} bind def
/cairo_selectfont { cairo_font_matrix aload pop pop pop 0 0 6 array astore
    cairo_font exch selectfont cairo_point_x cairo_point_y moveto } bind def
/Tf { pop /cairo_font exch def /cairo_font_matrix where
      { pop cairo_selectfont } if } bind def
/Td { matrix translate cairo_font_matrix matrix concatmatrix dup
      /cairo_font_matrix exch def dup 4 get exch 5 get cairo_store_point
      /cairo_font where { pop cairo_selectfont } if } bind def
/Tm { 2 copy 8 2 roll 6 array astore /cairo_font_matrix exch def
      cairo_store_point /cairo_font where { pop cairo_selectfont } if } bind def
/g { setgray } bind def
/rg { setrgbcolor } bind def
/d1 { setcachedevice } bind def
%%EndProlog
%%Page: 1 1
%%BeginPageSetup
%%PageBoundingBox: 0 -1 385 385
%%EndPageSetup
q 0 -1 385 386 rectclip q
0 384.213 385 -385 re W n
0 g
298.32 185.443 m 298.547 185.236 298.84 185.127 299.133 185.127 c 
299.352 185.127 299.57 185.185 299.766 185.307 c 300.223 185.592 
300.434 186.146 300.285 186.666 c 300.277 186.682 299.738 188.537 
298.996 191.639 c 298.652 193.1 298.211 195.057 297.809 197.283 c 
297.328 199.943 297.016 202.221 296.828 204.451 c 296.73 205.615 
296.625 206.998 296.613 208.443 c 296.598 209.572 296.594 211.06 
296.723 212.588 c 296.91 215.467 297.449 218.228 298.316 220.791 c 
299.23 223.459 300.555 225.92 302.262 228.1 c 302.719 228.685 303.18 
229.232 303.633 229.721 c 305.52 231.744 l 306.652 233.068 l 307.66 
234.35 l 308.199 235.072 308.902 236.033 309.543 237.045 c 311.891 
240.67 313.719 244.814 314.836 249.025 c 315.887 252.955 316.391 
257.103 316.324 261.342 c 316.273 264.935 315.809 268.678 314.934 
272.471 c 314.211 275.572 313.199 278.701 311.93 281.775 c 310.035 
286.307 307.68 290.51 304.922 294.267 c 302.887 297.041 301.445 298.428 
301.387 298.486 c 300.996 298.861 300.402 298.928 299.941 298.65 c 
299.477 298.373 299.258 297.818 299.398 297.299 c 299.406 297.279 
299.922 295.416 300.668 292.291 c 301.371 289.314 302.395 284.732 
303.133 279.35 c 303.531 276.432 303.781 273.6 303.883 270.928 c 
304.004 267.822 303.902 264.783 303.578 261.896 c 303.219 258.717 
302.566 255.697 301.645 252.928 c 300.676 250.021 299.344 247.252 
297.688 244.689 c 297.297 244.084 296.871 243.463 296.395 242.814 c 
295.035 241.072 l 293.156 238.908 l 292.375 237.978 291.703 237.092 
291.09 236.205 c 289.809 234.326 288.719 232.338 287.844 230.283 c 
287.004 228.267 286.355 226.17 285.918 224.057 c 285.148 220.318 
285.004 216.338 285.492 212.217 c 285.883 208.975 286.66 205.771 
287.863 202.412 c 289.531 197.857 291.84 193.56 294.723 189.646 c 
296.781 186.865 298.258 185.502 298.32 185.443 c h
298.32 185.443 m f
288.547 261.736 m 288.527 265.342 288.066 268.994 287.137 272.916 c 
286.688 274.709 286.219 276.307 285.699 277.81 c 285.125 279.435 
284.562 280.865 283.98 282.189 c 282.863 284.705 281.582 287.123 280.18 
289.381 c 279.016 291.236 277.812 292.947 276.598 294.463 c 274.461 
297.154 272.953 298.471 272.891 298.525 c 272.484 298.877 271.895 
298.916 271.445 298.623 c 270.996 298.33 270.797 297.771 270.961 297.26 
c 270.965 297.24 271.543 295.404 272.379 292.326 c 272.797 290.76 
273.289 288.869 273.77 286.725 c 274.348 284.142 274.797 281.799 
275.137 279.553 c 275.305 278.471 275.516 277.033 275.66 275.514 c 
275.836 273.865 275.941 272.514 275.984 271.244 c 276.137 268.291 
276.043 265.303 275.707 262.353 c 275.004 256.119 272.926 250.236 
269.699 245.322 c 269.281 244.678 268.82 244.029 268.391 243.439 c 
267.754 242.588 l 265.957 240.373 l 265.715 240.068 265.477 239.752 
265.246 239.435 c 264.938 239.021 l 264.227 238.017 263.633 237.096 
263.121 236.209 c 260.98 232.56 259.461 228.377 258.727 224.115 c 
258.387 222.17 258.195 220.166 258.16 218.162 c 258.121 216.076 258.195 
214.248 258.391 212.596 c 258.73 209.377 259.418 206.115 260.434 
202.904 c 261.254 200.31 262.273 197.764 263.469 195.326 c 264.418 
193.392 265.445 191.568 266.523 189.908 c 268.387 187.021 269.746 
185.564 269.805 185.506 c 270.035 185.256 270.355 185.127 270.68 
185.127 c 270.871 185.127 271.062 185.174 271.242 185.267 c 271.719 
185.521 271.969 186.06 271.848 186.592 c 271.844 186.607 271.422 
188.482 270.863 191.615 c 270.285 194.904 269.594 199.346 269.344 
204.537 c 269.207 207.381 269.254 210.146 269.48 212.767 c 269.734 
215.756 270.277 218.603 271.094 221.221 c 271.988 224.084 273.227 
226.689 274.773 228.967 c 275.164 229.553 275.594 230.111 276.027 
230.685 c 278.543 233.611 l 279.613 234.943 l 280.352 235.924 280.949 
236.764 281.496 237.596 c 283.887 241.225 285.766 245.314 286.922 
249.42 c 288.039 253.377 288.586 257.521 288.547 261.736 c h
288.547 261.736 m f
327.945 327.947 m 291.66 364.228 243.418 384.213 192.105 384.213 c 
140.793 384.213 92.551 364.228 56.266 327.947 c 19.98 291.662 0 243.42 
0 192.107 c 0 140.791 19.98 92.553 56.266 56.267 c 92.551 19.982 
140.793 0.002 192.105 0.002 c 243.418 0.002 291.66 19.982 327.945 
56.267 c 364.23 92.549 384.211 140.791 384.211 192.107 c 384.211 243.42 
364.23 291.662 327.945 327.947 c h
192.105 28.002 m 101.617 28.002 28 101.619 28 192.107 c 28 223.744 
37.008 253.31 52.578 278.396 c 153.73 177.248 l 72.305 177.248 l 65.676 
177.248 60.305 171.873 60.305 165.248 c 60.305 139.146 l 60.305 132.517 
65.676 127.146 72.305 127.146 c 203.832 127.146 l 278.398 52.58 l 
253.309 37.01 223.742 28.002 192.105 28.002 c h
318.316 87.334 m 276.938 128.713 l 280.879 130.756 283.598 134.975 
283.598 139.865 c 283.598 164.525 l 283.598 171.412 278.223 176.994 
271.598 176.994 c 270.57 176.994 l 263.941 176.994 258.57 171.412 
258.57 164.525 c 258.57 147.076 l 256.441 149.209 l 249.238 156.412 l 
249.238 165.244 l 249.238 171.873 243.863 177.244 237.238 177.244 c 
228.402 177.244 l 87.332 318.314 l 115.777 341.967 152.309 356.213 
192.105 356.213 c 282.594 356.213 356.215 282.596 356.215 192.107 c 
356.211 152.31 341.969 115.779 318.316 87.334 c h
318.316 87.334 m f
305.398 176.994 m 304.375 176.994 l 297.746 176.994 292.375 171.412 
292.375 164.525 c 292.375 139.865 l 292.375 132.978 297.746 127.396 
304.375 127.396 c 305.398 127.396 l 312.027 127.396 317.398 132.978 
317.398 139.865 c 317.398 164.525 l 317.398 171.412 312.027 176.994 
305.398 176.994 c h
305.398 176.994 m f
Q Q
showpage
%%Trailer
count op_count sub {pop} repeat
countdictstack dict_count sub {end} repeat
cairo_eps_state restore
%%EOF
