%!PS-Adobe-3.0 EPSF-3.0
%%Creator: cairo 1.10.2 (http://cairographics.org)
%%CreationDate: Wed Jul 30 08:47:42 2014
%%Pages: 1
%%BoundingBox: 0 -1 336 377
%%DocumentData: Clean7Bit
%%LanguageLevel: 2
%%EndComments
%%BeginProlog
/cairo_eps_state save def
/dict_count countdictstack def
/op_count count 1 sub def
userdict begin
/q { gsave } bind def
/Q { grestore } bind def
/cm { 6 array astore concat } bind def
/w { setlinewidth } bind def
/J { setlinecap } bind def
/j { setlinejoin } bind def
/M { setmiterlimit } bind def
/d { setdash } bind def
/m { moveto } bind def
/l { lineto } bind def
/c { curveto } bind def
/h { closepath } bind def
/re { exch dup neg 3 1 roll 5 3 roll moveto 0 rlineto
      0 exch rlineto 0 rlineto closepath } bind def
/S { stroke } bind def
/f { fill } bind def
/f* { eofill } bind def
/n { newpath } bind def
/W { clip } bind def
/W* { eoclip } bind def
/BT { } bind def
/ET { } bind def
/pdfmark where { pop globaldict /?pdfmark /exec load put }
    { globaldict begin /?pdfmark /pop load def /pdfmark
    /cleartomark load def end } ifelse
/BDC { mark 3 1 roll /BDC pdfmark } bind def
/EMC { mark /EMC pdfmark } bind def
/cairo_store_point { /cairo_point_y exch def /cairo_point_x exch def } def
/Tj { show currentpoint cairo_store_point } bind def
/TJ {
  {
    dup
    type /stringtype eq
    { show } { -0.001 mul 0 cairo_font_matrix dtransform rmoveto } ifelse
  } forall
  currentpoint cairo_store_point
} bind def
/cairo_selectfont { cairo_font_matrix aload pop pop pop 0 0 6 array astore
    cairo_font exch selectfont cairo_point_x cairo_point_y moveto } bind def
/Tf { pop /cairo_font exch def /cairo_font_matrix where
      { pop cairo_selectfont } if } bind def
/Td { matrix translate cairo_font_matrix matrix concatmatrix dup
      /cairo_font_matrix exch def dup 4 get exch 5 get cairo_store_point
      /cairo_font where { pop cairo_selectfont } if } bind def
/Tm { 2 copy 8 2 roll 6 array astore /cairo_font_matrix exch def
      cairo_store_point /cairo_font where { pop cairo_selectfont } if } bind def
/g { setgray } bind def
/rg { setrgbcolor } bind def
/d1 { setcachedevice } bind def
%%EndProlog
%%Page: 1 1
%%BeginPageSetup
%%PageBoundingBox: 0 -1 336 377
%%EndPageSetup
q 0 -1 336 378 rectclip q
0 376.746 336 -377 re W n
0 g
314.543 110.707 m 306.898 110.707 l 323.047 117.769 335.668 131.281 
335.668 147.457 c 335.668 171.387 325.074 181.457 315.141 187.238 c 
307.086 192.66 297.227 195.89 286.535 195.89 c 285.793 195.89 267.938 
195.879 267.938 195.879 c 238.004 167.289 l 231.484 161.058 223.793 
158.531 220.824 161.633 c 216.793 165.855 l 213.828 168.961 216.707 
176.531 223.227 182.758 c 247.207 205.664 l 243.48 208.301 239.656 
211.367 235.789 214.742 c 199.188 179.781 l 192.664 173.551 184.977 
171.023 182.008 174.129 c 177.977 178.347 l 175.008 181.453 177.891 
189.023 184.41 195.25 c 220.293 229.527 l 216.535 233.375 212.812 
237.347 209.168 241.344 c 184.785 218.055 l 162.613 196.875 l 156.094 
190.644 148.402 188.117 145.438 191.219 c 141.406 195.441 l 138.438 
198.547 141.316 206.117 147.836 212.344 c 147.836 212.344 164.363 
230.472 172.301 237.445 c 180.234 244.418 194.957 257.351 194.957 
257.351 c 189.516 263.609 184.48 269.492 180.062 274.508 c 183.914 
306.578 190.238 353.156 176.25 370.433 c 157.84 393.176 143.328 347.265 
122.746 345.914 c 109.59 345.047 72.523 349.719 47.5 353.195 c 33.387 
355.16 22.355 343.726 22.73 325.347 c 23.559 284.453 31.734 230.015 
18.773 207.281 c 7.297 187.148 -13.574 122.828 12.652 108.383 c 5.871 
104.898 1.234 97.836 1.234 89.691 c 1.234 80.226 7.492 72.226 16.094 
69.594 c 14.484 64.504 13.609 59.094 13.609 53.476 c 13.609 23.992 
37.598 -0 67.086 -0 c 80.195 -0 92.207 4.746 101.516 12.601 c 110.781 
4.906 122.676 0.269 135.633 0.269 c 148.738 0.269 160.754 5.019 170.062 
12.871 c 179.328 5.176 191.223 0.543 204.18 0.543 c 217.062 0.543 
228.898 5.121 238.141 12.738 c 247.473 4.805 259.547 0.004 272.727 
0.004 c 302.215 0.004 326.203 23.992 326.203 53.48 c 326.203 59.472 
325.199 65.234 323.371 70.617 c 330.566 73.953 335.559 81.238 335.559 
89.691 c 335.559 101.297 326.152 110.707 314.543 110.707 c h
67.086 38.41 m 58.777 38.41 52.016 45.168 52.016 53.476 c 52.016 61.785 
58.777 68.547 67.086 68.547 c 75.395 68.547 82.156 61.785 82.156 53.476 
c 82.156 45.168 75.395 38.41 67.086 38.41 c h
135.633 38.68 m 127.324 38.68 120.566 45.437 120.566 53.75 c 120.566 
61.39 126.289 67.707 133.668 68.672 c 137.598 68.672 l 144.977 67.707 
150.699 61.39 150.699 53.75 c 150.699 45.437 143.941 38.68 135.633 
38.68 c h
204.18 38.953 m 195.871 38.953 189.109 45.711 189.109 54.019 c 189.109 
61.137 194.078 67.105 200.727 68.672 c 207.633 68.672 l 214.281 67.105 
219.246 61.137 219.246 54.019 c 219.246 45.711 212.488 38.953 204.18 
38.953 c h
272.727 38.414 m 264.418 38.414 257.656 45.172 257.656 53.48 c 257.656 
61.789 264.418 68.551 272.727 68.551 c 281.035 68.551 287.793 61.789 
287.793 53.48 c 287.793 45.172 281.035 38.414 272.727 38.414 c h
272.727 38.414 m f
Q Q
showpage
%%Trailer
count op_count sub {pop} repeat
countdictstack dict_count sub {end} repeat
cairo_eps_state restore
%%EOF
