%!PS-Adobe-3.0 EPSF-3.0
%%Creator: cairo 1.10.2 (http://cairographics.org)
%%CreationDate: Thu Jul 31 07:30:16 2014
%%Pages: 1
%%BoundingBox: 0 -1 385 385
%%DocumentData: Clean7Bit
%%LanguageLevel: 2
%%EndComments
%%BeginProlog
/cairo_eps_state save def
/dict_count countdictstack def
/op_count count 1 sub def
userdict begin
/q { gsave } bind def
/Q { grestore } bind def
/cm { 6 array astore concat } bind def
/w { setlinewidth } bind def
/J { setlinecap } bind def
/j { setlinejoin } bind def
/M { setmiterlimit } bind def
/d { setdash } bind def
/m { moveto } bind def
/l { lineto } bind def
/c { curveto } bind def
/h { closepath } bind def
/re { exch dup neg 3 1 roll 5 3 roll moveto 0 rlineto
      0 exch rlineto 0 rlineto closepath } bind def
/S { stroke } bind def
/f { fill } bind def
/f* { eofill } bind def
/n { newpath } bind def
/W { clip } bind def
/W* { eoclip } bind def
/BT { } bind def
/ET { } bind def
/pdfmark where { pop globaldict /?pdfmark /exec load put }
    { globaldict begin /?pdfmark /pop load def /pdfmark
    /cleartomark load def end } ifelse
/BDC { mark 3 1 roll /BDC pdfmark } bind def
/EMC { mark /EMC pdfmark } bind def
/cairo_store_point { /cairo_point_y exch def /cairo_point_x exch def } def
/Tj { show currentpoint cairo_store_point } bind def
/TJ {
  {
    dup
    type /stringtype eq
    { show } { -0.001 mul 0 cairo_font_matrix dtransform rmoveto } ifelse
  } forall
  currentpoint cairo_store_point
} bind def
/cairo_selectfont { cairo_font_matrix aload pop pop pop 0 0 6 array astore
    cairo_font exch selectfont cairo_point_x cairo_point_y moveto } bind def
/Tf { pop /cairo_font exch def /cairo_font_matrix where
      { pop cairo_selectfont } if } bind def
/Td { matrix translate cairo_font_matrix matrix concatmatrix dup
      /cairo_font_matrix exch def dup 4 get exch 5 get cairo_store_point
      /cairo_font where { pop cairo_selectfont } if } bind def
/Tm { 2 copy 8 2 roll 6 array astore /cairo_font_matrix exch def
      cairo_store_point /cairo_font where { pop cairo_selectfont } if } bind def
/g { setgray } bind def
/rg { setrgbcolor } bind def
/d1 { setcachedevice } bind def
%%EndProlog
%%Page: 1 1
%%BeginPageSetup
%%PageBoundingBox: 0 -1 385 385
%%EndPageSetup
q 0 -1 385 386 rectclip q
0 384.213 385 -385 re W n
0 g
260.914 328.689 m 227.219 328.689 l 226.168 328.689 225.32 327.838 
225.32 326.787 c 225.32 300.365 l 225.32 299.314 226.168 298.463 
227.219 298.463 c 260.914 298.463 l 261.965 298.463 262.816 299.314 
262.816 300.365 c 262.816 326.787 l 262.816 327.838 261.965 328.689 
260.914 328.689 c h
260.914 328.689 m f
327.945 327.947 m 291.664 364.228 243.422 384.213 192.105 384.213 c 
140.793 384.213 92.551 364.228 56.266 327.947 c 19.984 291.662 0 243.42 
0 192.107 c 0 140.791 19.984 92.553 56.266 56.267 c 92.551 19.982 
140.793 0.002 192.105 0.002 c 243.422 0.002 291.664 19.982 327.945 
56.267 c 364.23 92.549 384.215 140.791 384.215 192.107 c 384.215 243.42 
364.23 291.662 327.945 327.947 c h
192.105 28.002 m 101.617 28.002 28 101.619 28 192.107 c 28 223.744 
37.008 253.31 52.578 278.396 c 104.926 226.053 l 93.898 226.053 l 
93.176 226.053 92.508 225.662 92.152 225.029 c 90.969 222.904 l 85.656 
213.588 82.848 202.701 82.848 191.412 c 82.848 163.783 100.215 139.912 
123.512 135.084 c 123.512 73.736 l 108.168 72.951 100.391 70.65 100.391 
66.885 c 100.391 64.213 103.52 62.545 110.859 61.307 c 116.629 60.33 
124.297 59.791 132.449 59.791 c 140.598 59.791 148.27 60.33 154.051 
61.307 c 161.395 62.545 164.531 64.213 164.531 66.885 c 164.531 70.65 
156.758 72.951 141.422 73.736 c 141.422 135.154 l 152.348 137.553 
162.32 144.225 169.648 154.084 c 170.684 155.478 171.652 156.928 
172.562 158.42 c 200.859 130.119 l 200.859 60.271 l 200.859 59.166 
201.754 58.271 202.859 58.271 c 272.707 58.271 l 278.398 52.58 l 
253.312 37.01 223.742 28.002 192.105 28.002 c h
101.223 185.678 m 101.262 185.338 105.211 151.74 132.492 151.74 c 
148.117 151.74 155.406 162.705 158.785 172.193 c 163.441 167.537 l 
161.961 164.717 160.215 162.068 158.203 159.65 c 151.223 151.279 
141.992 146.666 132.211 146.666 c 111.859 146.666 95.301 166.752 95.301 
191.439 c 95.301 199.26 96.977 206.896 100.164 213.611 c 117.367 
213.611 l 143.117 187.865 l 103.184 187.865 l 102.625 187.865 102.09 
187.623 101.719 187.209 c 101.344 186.791 101.164 186.236 101.223 
185.678 c h
212.828 117.111 m 212.828 118.15 l 217.867 113.111 l 216.828 113.111 l 
214.617 113.111 212.828 114.9 212.828 117.111 c h
225.969 179.682 m 271.652 179.682 l 273.859 179.682 275.652 177.892 
275.652 175.682 c 275.652 129.998 l h
318.316 87.334 m 286.898 118.752 l 286.898 222.021 l 286.91 238.463 
277.469 253.494 262.73 260.682 c 262.73 286.627 l 262.73 287.732 
261.836 288.627 260.73 288.627 c 227.039 288.627 l 225.934 288.627 
225.039 287.732 225.039 286.627 c 225.039 260.666 l 210.309 253.486 
200.859 238.459 200.859 222.021 c 200.859 204.791 l 87.336 318.314 l 
115.777 341.967 152.309 356.213 192.105 356.213 c 282.594 356.213 
356.215 282.596 356.215 192.107 c 356.215 152.307 341.969 115.779 
318.316 87.334 c h
318.316 87.334 m f
Q Q
showpage
%%Trailer
count op_count sub {pop} repeat
countdictstack dict_count sub {end} repeat
cairo_eps_state restore
%%EOF
