%!PS-Adobe-3.0 EPSF-3.0
%%Creator: cairo 1.10.2 (http://cairographics.org)
%%CreationDate: Thu Jul 31 07:30:16 2014
%%Pages: 1
%%BoundingBox: 0 -1 342 382
%%DocumentData: Clean7Bit
%%LanguageLevel: 2
%%EndComments
%%BeginProlog
/cairo_eps_state save def
/dict_count countdictstack def
/op_count count 1 sub def
userdict begin
/q { gsave } bind def
/Q { grestore } bind def
/cm { 6 array astore concat } bind def
/w { setlinewidth } bind def
/J { setlinecap } bind def
/j { setlinejoin } bind def
/M { setmiterlimit } bind def
/d { setdash } bind def
/m { moveto } bind def
/l { lineto } bind def
/c { curveto } bind def
/h { closepath } bind def
/re { exch dup neg 3 1 roll 5 3 roll moveto 0 rlineto
      0 exch rlineto 0 rlineto closepath } bind def
/S { stroke } bind def
/f { fill } bind def
/f* { eofill } bind def
/n { newpath } bind def
/W { clip } bind def
/W* { eoclip } bind def
/BT { } bind def
/ET { } bind def
/pdfmark where { pop globaldict /?pdfmark /exec load put }
    { globaldict begin /?pdfmark /pop load def /pdfmark
    /cleartomark load def end } ifelse
/BDC { mark 3 1 roll /BDC pdfmark } bind def
/EMC { mark /EMC pdfmark } bind def
/cairo_store_point { /cairo_point_y exch def /cairo_point_x exch def } def
/Tj { show currentpoint cairo_store_point } bind def
/TJ {
  {
    dup
    type /stringtype eq
    { show } { -0.001 mul 0 cairo_font_matrix dtransform rmoveto } ifelse
  } forall
  currentpoint cairo_store_point
} bind def
/cairo_selectfont { cairo_font_matrix aload pop pop pop 0 0 6 array astore
    cairo_font exch selectfont cairo_point_x cairo_point_y moveto } bind def
/Tf { pop /cairo_font exch def /cairo_font_matrix where
      { pop cairo_selectfont } if } bind def
/Td { matrix translate cairo_font_matrix matrix concatmatrix dup
      /cairo_font_matrix exch def dup 4 get exch 5 get cairo_store_point
      /cairo_font where { pop cairo_selectfont } if } bind def
/Tm { 2 copy 8 2 roll 6 array astore /cairo_font_matrix exch def
      cairo_store_point /cairo_font where { pop cairo_selectfont } if } bind def
/g { setgray } bind def
/rg { setrgbcolor } bind def
/d1 { setcachedevice } bind def
%%EndProlog
%%Page: 1 1
%%BeginPageSetup
%%PageBoundingBox: 0 -1 342 382
%%EndPageSetup
q 0 -1 342 383 rectclip q
0 381.097 342 -382 re W n
0 g
105.586 264.554 m 122.25 274.628 128.699 277.183 135.816 279.195 c 
133.238 297.812 134.672 315.316 141.418 333.078 c 145.809 344.648 
127.387 349.98 123.02 338.496 c 115.719 319.277 114.246 299.378 116.508 
279.285 c 102.73 315.468 81.551 348.523 56.363 377.863 c 48.281 387.277 
34.383 374.058 42.402 364.714 c 53.672 351.586 64.105 337.558 73.398 
322.82 c 85.367 302.687 90.637 291.187 92.617 283.113 c 69.137 305.285 
54.832 334.718 41.023 363.976 c 35.758 375.144 19.484 364.964 24.711 
353.894 c 32.656 337.054 40.82 320.73 50.469 305.582 c 38.637 318.367 
27.785 332.078 18.02 346.355 c 11.066 356.523 -5.297 346.511 1.707 
336.273 c 23.535 304.355 49.984 275.347 81.375 252.675 c 62.551 260.062 
42.949 263.785 22.496 261.703 c 10.27 260.453 10.66 241.277 22.973 
242.527 c 41.871 244.453 59.754 241.086 77.07 233.777 c 81.32 241.812 
88.93 254.476 105.586 264.554 c h
105.586 264.554 m f
333.09 42.886 m 227.914 201.054 l 209.859 195.179 197.312 185.214 
191.809 177.281 c 185.887 168.503 179.223 170.468 175.344 174.015 c 
171.465 177.558 170.094 181.515 178.332 191.16 c 182.656 196.226 
188.355 201.945 197.094 207.433 c 202.52 210.847 209.172 214.152 
217.074 217.351 c 185.078 265.468 l 178.785 272.707 170.414 276.507 
160.383 276.507 c 145.566 276.507 125.184 265.382 113.602 257.48 c 
106.477 252.617 100.848 247.757 97.824 244.742 c 94.012 240.921 89.652 
235.113 85.742 228.242 c 79.41 217.109 74.273 203.148 74.648 190.128 c 
74.973 178.929 79.262 169.574 87.387 162.347 c 96.812 155.492 l 98.559 
175.566 103.988 194.574 118.504 211.101 c 126.68 220.41 140.191 206.793 
132.07 197.535 c 118.223 181.777 115.301 162.14 115.117 142.195 c 
176.52 97.574 l 179.676 110.695 185.328 123.132 195.23 134.394 c 
203.398 143.711 216.914 130.093 208.785 120.836 c 199.605 110.375 
195.25 98.214 193.277 85.382 c 298.566 8.855 l 305.176 2.996 312.184 -0 
319.066 -0 c 327.969 -0 335.793 5 339.473 13.043 c 343.746 22.382 
341.418 33.265 333.09 42.886 c h
333.09 42.886 m f
Q Q
showpage
%%Trailer
count op_count sub {pop} repeat
countdictstack dict_count sub {end} repeat
cairo_eps_state restore
%%EOF
