%!PS-Adobe-3.0 EPSF-3.0
%%Creator: cairo 1.10.2 (http://cairographics.org)
%%CreationDate: Thu Jul 31 07:30:21 2014
%%Pages: 1
%%BoundingBox: 0 -1 313 388
%%DocumentData: Clean7Bit
%%LanguageLevel: 2
%%EndComments
%%BeginProlog
/cairo_eps_state save def
/dict_count countdictstack def
/op_count count 1 sub def
userdict begin
/q { gsave } bind def
/Q { grestore } bind def
/cm { 6 array astore concat } bind def
/w { setlinewidth } bind def
/J { setlinecap } bind def
/j { setlinejoin } bind def
/M { setmiterlimit } bind def
/d { setdash } bind def
/m { moveto } bind def
/l { lineto } bind def
/c { curveto } bind def
/h { closepath } bind def
/re { exch dup neg 3 1 roll 5 3 roll moveto 0 rlineto
      0 exch rlineto 0 rlineto closepath } bind def
/S { stroke } bind def
/f { fill } bind def
/f* { eofill } bind def
/n { newpath } bind def
/W { clip } bind def
/W* { eoclip } bind def
/BT { } bind def
/ET { } bind def
/pdfmark where { pop globaldict /?pdfmark /exec load put }
    { globaldict begin /?pdfmark /pop load def /pdfmark
    /cleartomark load def end } ifelse
/BDC { mark 3 1 roll /BDC pdfmark } bind def
/EMC { mark /EMC pdfmark } bind def
/cairo_store_point { /cairo_point_y exch def /cairo_point_x exch def } def
/Tj { show currentpoint cairo_store_point } bind def
/TJ {
  {
    dup
    type /stringtype eq
    { show } { -0.001 mul 0 cairo_font_matrix dtransform rmoveto } ifelse
  } forall
  currentpoint cairo_store_point
} bind def
/cairo_selectfont { cairo_font_matrix aload pop pop pop 0 0 6 array astore
    cairo_font exch selectfont cairo_point_x cairo_point_y moveto } bind def
/Tf { pop /cairo_font exch def /cairo_font_matrix where
      { pop cairo_selectfont } if } bind def
/Td { matrix translate cairo_font_matrix matrix concatmatrix dup
      /cairo_font_matrix exch def dup 4 get exch 5 get cairo_store_point
      /cairo_font where { pop cairo_selectfont } if } bind def
/Tm { 2 copy 8 2 roll 6 array astore /cairo_font_matrix exch def
      cairo_store_point /cairo_font where { pop cairo_selectfont } if } bind def
/g { setgray } bind def
/rg { setrgbcolor } bind def
/d1 { setcachedevice } bind def
%%EndProlog
%%Page: 1 1
%%BeginPageSetup
%%PageBoundingBox: 0 -1 313 388
%%EndPageSetup
q 0 -1 313 389 rectclip q
0 387.222 313 -388 re W n
0 g
156.746 258.011 m 156.625 258.011 156.508 257.999 156.387 257.999 c 
156.387 154.081 l 259.191 154.081 l 259.199 154.565 259.23 155.042 
259.23 155.522 c 259.23 212.124 213.344 258.011 156.746 258.011 c h
156.746 258.011 m f
147.387 74.136 17.996 -26.012 re f
56.164 166.382 26.016 -17.598 re f
269.914 262.757 m 287.227 281.022 l 291.789 285.835 291.586 293.436 
286.777 297.995 c 272.254 311.765 l 267.438 316.327 259.84 316.124 
255.277 311.311 c 235.473 290.421 l 219.859 299.683 202.5 306.3 184.016 
309.651 c 184.016 335.19 l 207.613 335.19 l 214.246 335.19 219.621 
340.565 219.621 347.198 c 219.621 375.214 l 219.621 381.847 214.246 
387.222 207.613 387.222 c 104.555 387.222 l 97.922 387.222 92.547 
381.847 92.547 375.214 c 92.547 347.198 l 92.547 340.565 97.922 335.19 
104.555 335.19 c 127.812 335.19 l 127.812 309.589 l 109.07 306.147 
91.488 299.354 75.715 289.839 c 75.594 289.964 75.484 290.093 75.359 
290.214 c 52.848 311.554 l 48.035 316.116 40.434 315.913 35.871 311.1 c 
22.105 296.577 l 17.543 291.765 17.746 284.163 22.559 279.604 c 41.352 
261.788 l 15.699 233.964 0 196.827 0 156.085 c 0 70.018 70.02 -0.001 
156.086 -0.001 c 242.148 -0.001 312.168 70.018 312.168 156.085 c 
312.168 197.3 296.102 234.831 269.914 262.757 c h
156.086 27.999 m 85.461 27.999 28 85.46 28 156.085 c 28 226.71 85.457 
284.171 156.086 284.171 c 226.711 284.171 284.168 226.71 284.168 
156.085 c 284.168 85.46 226.707 27.999 156.086 27.999 c h
156.086 27.999 m f
Q Q
showpage
%%Trailer
count op_count sub {pop} repeat
countdictstack dict_count sub {end} repeat
cairo_eps_state restore
%%EOF
