%!PS-Adobe-3.0 EPSF-3.0
%%Creator: cairo 1.10.2 (http://cairographics.org)
%%CreationDate: Thu Jul 31 07:30:19 2014
%%Pages: 1
%%BoundingBox: 0 -1 331 388
%%DocumentData: Clean7Bit
%%LanguageLevel: 2
%%EndComments
%%BeginProlog
/cairo_eps_state save def
/dict_count countdictstack def
/op_count count 1 sub def
userdict begin
/q { gsave } bind def
/Q { grestore } bind def
/cm { 6 array astore concat } bind def
/w { setlinewidth } bind def
/J { setlinecap } bind def
/j { setlinejoin } bind def
/M { setmiterlimit } bind def
/d { setdash } bind def
/m { moveto } bind def
/l { lineto } bind def
/c { curveto } bind def
/h { closepath } bind def
/re { exch dup neg 3 1 roll 5 3 roll moveto 0 rlineto
      0 exch rlineto 0 rlineto closepath } bind def
/S { stroke } bind def
/f { fill } bind def
/f* { eofill } bind def
/n { newpath } bind def
/W { clip } bind def
/W* { eoclip } bind def
/BT { } bind def
/ET { } bind def
/pdfmark where { pop globaldict /?pdfmark /exec load put }
    { globaldict begin /?pdfmark /pop load def /pdfmark
    /cleartomark load def end } ifelse
/BDC { mark 3 1 roll /BDC pdfmark } bind def
/EMC { mark /EMC pdfmark } bind def
/cairo_store_point { /cairo_point_y exch def /cairo_point_x exch def } def
/Tj { show currentpoint cairo_store_point } bind def
/TJ {
  {
    dup
    type /stringtype eq
    { show } { -0.001 mul 0 cairo_font_matrix dtransform rmoveto } ifelse
  } forall
  currentpoint cairo_store_point
} bind def
/cairo_selectfont { cairo_font_matrix aload pop pop pop 0 0 6 array astore
    cairo_font exch selectfont cairo_point_x cairo_point_y moveto } bind def
/Tf { pop /cairo_font exch def /cairo_font_matrix where
      { pop cairo_selectfont } if } bind def
/Td { matrix translate cairo_font_matrix matrix concatmatrix dup
      /cairo_font_matrix exch def dup 4 get exch 5 get cairo_store_point
      /cairo_font where { pop cairo_selectfont } if } bind def
/Tm { 2 copy 8 2 roll 6 array astore /cairo_font_matrix exch def
      cairo_store_point /cairo_font where { pop cairo_selectfont } if } bind def
/g { setgray } bind def
/rg { setrgbcolor } bind def
/d1 { setcachedevice } bind def
%%EndProlog
%%Page: 1 1
%%BeginPageSetup
%%PageBoundingBox: 0 -1 331 388
%%EndPageSetup
q 0 -1 331 389 rectclip q
0 387.73 331 -388 re W n
0 g
285.578 356.332 m 266.012 356.332 l 266.012 371.109 l 266.012 380.285 
258.566 387.73 249.387 387.73 c 243.344 387.73 l 234.164 387.73 226.723 
380.285 226.723 371.109 c 226.723 356.332 l 110.438 356.332 l 110.438 
371.109 l 110.438 380.285 102.996 387.73 93.816 387.73 c 87.773 387.73 
l 78.594 387.73 71.152 380.285 71.152 371.109 c 71.152 356.332 l 44.875 
356.332 l 20.133 356.332 0 336.199 0 311.453 c 0 44.875 l 0 20.133 
20.133 -0 44.875 -0 c 285.578 -0 l 310.324 -0 330.457 20.133 330.457 
44.875 c 330.457 311.453 l 330.457 336.199 310.324 356.332 285.578 
356.332 c h
303.43 44.875 m 303.43 35.035 295.422 27.023 285.578 27.023 c 44.875 
27.023 l 35.035 27.023 27.027 35.035 27.027 44.875 c 27.027 311.453 l 
27.027 321.297 35.035 329.305 44.875 329.305 c 71.152 329.305 l 71.152 
308.074 l 71.152 298.898 78.594 291.453 87.773 291.453 c 93.816 291.453 
l 102.996 291.453 110.438 298.898 110.438 308.074 c 110.438 329.305 l 
226.723 329.305 l 226.723 308.074 l 226.723 298.898 234.164 291.453 
243.344 291.453 c 249.387 291.453 l 258.57 291.453 266.012 298.898 
266.012 308.074 c 266.012 329.305 l 285.578 329.305 l 295.422 329.305 
303.43 321.297 303.43 311.453 c h
303.43 44.875 m f
163.078 125.91 m 171.941 131.34 181.27 136.59 191.043 141.656 c 200.816 
146.723 209.777 152.383 217.922 158.629 c 226.07 164.871 232.766 
172.156 238.016 180.484 c 243.266 188.809 245.891 199.035 245.891 
211.164 c 245.891 221.117 244.031 229.855 240.324 237.367 c 236.609 
244.875 231.363 251.078 224.574 255.965 c 217.789 260.855 209.641 
264.519 200.137 266.965 c 190.637 269.406 180.184 270.629 168.777 
270.629 c 156.105 270.629 144.656 268.816 134.43 265.199 c 124.203 
261.574 115.562 256.281 108.5 249.316 c 101.441 242.344 96.191 233.793 
92.754 223.656 c 89.312 213.519 87.957 201.937 88.68 188.902 c 139.727 
188.902 l 139.359 200.484 141.309 209.852 145.562 217.004 c 149.812 
224.152 157.375 227.73 168.234 227.73 c 174.57 227.73 179.953 226.055 
184.391 222.707 c 188.824 219.355 191.043 213.34 191.043 204.652 c 
191.043 201.211 190.18 198.133 188.461 195.418 c 186.738 192.703 
184.566 190.262 181.945 188.09 c 179.32 185.918 176.516 183.922 173.527 
182.117 c 170.543 180.305 167.871 178.676 165.52 177.227 c 159.547 
173.605 153.391 169.937 147.055 166.23 c 140.719 162.519 134.609 
158.629 128.73 154.555 c 122.844 150.484 117.324 146.094 112.168 
141.387 c 107.008 136.68 102.434 131.613 98.453 126.184 c 93.746 
119.844 90.172 112.785 87.73 105.004 c 85.285 97.219 84.336 88.711 
84.879 79.48 c 248.605 79.48 l 248.605 125.641 l 163.074 125.641 l 
163.074 125.91 l h
163.078 125.91 m f
Q Q
showpage
%%Trailer
count op_count sub {pop} repeat
countdictstack dict_count sub {end} repeat
cairo_eps_state restore
%%EOF
