%!PS-Adobe-3.0 EPSF-3.0
%%Creator: cairo 1.10.2 (http://cairographics.org)
%%CreationDate: Thu Jul 31 07:30:23 2014
%%Pages: 1
%%BoundingBox: 0 -1 291 374
%%DocumentData: Clean7Bit
%%LanguageLevel: 2
%%EndComments
%%BeginProlog
/cairo_eps_state save def
/dict_count countdictstack def
/op_count count 1 sub def
userdict begin
/q { gsave } bind def
/Q { grestore } bind def
/cm { 6 array astore concat } bind def
/w { setlinewidth } bind def
/J { setlinecap } bind def
/j { setlinejoin } bind def
/M { setmiterlimit } bind def
/d { setdash } bind def
/m { moveto } bind def
/l { lineto } bind def
/c { curveto } bind def
/h { closepath } bind def
/re { exch dup neg 3 1 roll 5 3 roll moveto 0 rlineto
      0 exch rlineto 0 rlineto closepath } bind def
/S { stroke } bind def
/f { fill } bind def
/f* { eofill } bind def
/n { newpath } bind def
/W { clip } bind def
/W* { eoclip } bind def
/BT { } bind def
/ET { } bind def
/pdfmark where { pop globaldict /?pdfmark /exec load put }
    { globaldict begin /?pdfmark /pop load def /pdfmark
    /cleartomark load def end } ifelse
/BDC { mark 3 1 roll /BDC pdfmark } bind def
/EMC { mark /EMC pdfmark } bind def
/cairo_store_point { /cairo_point_y exch def /cairo_point_x exch def } def
/Tj { show currentpoint cairo_store_point } bind def
/TJ {
  {
    dup
    type /stringtype eq
    { show } { -0.001 mul 0 cairo_font_matrix dtransform rmoveto } ifelse
  } forall
  currentpoint cairo_store_point
} bind def
/cairo_selectfont { cairo_font_matrix aload pop pop pop 0 0 6 array astore
    cairo_font exch selectfont cairo_point_x cairo_point_y moveto } bind def
/Tf { pop /cairo_font exch def /cairo_font_matrix where
      { pop cairo_selectfont } if } bind def
/Td { matrix translate cairo_font_matrix matrix concatmatrix dup
      /cairo_font_matrix exch def dup 4 get exch 5 get cairo_store_point
      /cairo_font where { pop cairo_selectfont } if } bind def
/Tm { 2 copy 8 2 roll 6 array astore /cairo_font_matrix exch def
      cairo_store_point /cairo_font where { pop cairo_selectfont } if } bind def
/g { setgray } bind def
/rg { setrgbcolor } bind def
/d1 { setcachedevice } bind def
%%EndProlog
%%Page: 1 1
%%BeginPageSetup
%%PageBoundingBox: 0 -1 291 374
%%EndPageSetup
q 0 -1 291 375 rectclip q
0 373.98 291 -374 re W n
0 g
223.16 180.816 m 67.105 180.816 l 55.594 180.816 46.266 171.484 46.266 
159.972 c 46.266 96.203 l 46.266 84.691 55.594 75.359 67.105 75.359 c 
223.16 75.359 l 234.676 75.359 244.008 84.691 244.008 96.203 c 244.008 
159.972 l 244.008 171.484 234.676 180.816 223.16 180.816 c h
223.16 180.816 m f
290.262 120.179 m 290.254 157.277 290.25 195.695 290.25 204.902 c 
290.25 228.035 282.539 235.492 269.957 245.742 c 269.695 245.957 l 
255.602 257.437 243.977 266.539 233.105 274.597 c 232.371 275.14 
230.664 276.582 230.664 278.191 c 230.664 307.511 l 241.801 307.511 l 
241.801 335.433 l 241.773 335.433 l 241.711 356.734 224.434 373.98 
203.121 373.98 c 87.133 373.98 l 65.781 373.98 48.469 356.671 48.469 
335.316 c 48.488 335.316 l 48.488 307.511 l 59.605 307.511 l 59.605 
278.293 l 59.605 276.679 57.898 275.242 57.164 274.699 c 46.297 266.64 
34.668 257.539 20.578 246.054 c 20.312 245.839 l 7.734 235.589 0.023 
228.136 0.023 205.003 c 0.023 195.796 0.016 157.375 0.012 120.281 c 
0.004 85.66 0 52.191 0 44.707 c 0 22.781 16.684 0.101 44.609 0.101 c 
146.008 0.101 l 146.906 0.101 236.168 -0 245.664 -0 c 273.586 -0 290.27 
22.679 290.27 44.609 c 290.27 52.089 290.266 85.558 290.262 120.179 c h
245.664 28 m 236.18 28 146.938 28.097 146.023 28.097 c 44.609 28.097 l 
32.422 28.097 28 38.031 28 44.707 c 28 52.191 28.004 85.656 28.012 
120.277 c 28.016 157.375 28.023 195.793 28.023 205.003 c 28.023 216.003 
28.398 216.308 38 224.132 c 38.266 224.351 l 52.02 235.554 63.324 
244.406 73.84 252.203 c 82.59 258.687 87.605 268.199 87.605 278.293 c 
87.605 307.511 l 202.668 307.511 l 202.668 278.191 l 202.668 268.097 
207.684 258.589 216.434 252.105 c 226.949 244.308 238.254 235.457 
252.008 224.25 c 252.273 224.035 l 261.875 216.21 262.25 215.906 262.25 
204.902 c 262.25 195.695 262.258 157.273 262.262 120.175 c 262.266 
85.554 262.273 52.089 262.273 44.605 c 262.27 37.929 257.848 28 245.664 
28 c h
245.664 28 m f
Q Q
showpage
%%Trailer
count op_count sub {pop} repeat
countdictstack dict_count sub {end} repeat
cairo_eps_state restore
%%EOF
