%!PS-Adobe-3.0 EPSF-3.0
%%Creator: cairo 1.10.2 (http://cairographics.org)
%%CreationDate: Wed Jul 30 08:47:27 2014
%%Pages: 1
%%BoundingBox: 0 -1 385 383
%%DocumentData: Clean7Bit
%%LanguageLevel: 2
%%EndComments
%%BeginProlog
/cairo_eps_state save def
/dict_count countdictstack def
/op_count count 1 sub def
userdict begin
/q { gsave } bind def
/Q { grestore } bind def
/cm { 6 array astore concat } bind def
/w { setlinewidth } bind def
/J { setlinecap } bind def
/j { setlinejoin } bind def
/M { setmiterlimit } bind def
/d { setdash } bind def
/m { moveto } bind def
/l { lineto } bind def
/c { curveto } bind def
/h { closepath } bind def
/re { exch dup neg 3 1 roll 5 3 roll moveto 0 rlineto
      0 exch rlineto 0 rlineto closepath } bind def
/S { stroke } bind def
/f { fill } bind def
/f* { eofill } bind def
/n { newpath } bind def
/W { clip } bind def
/W* { eoclip } bind def
/BT { } bind def
/ET { } bind def
/pdfmark where { pop globaldict /?pdfmark /exec load put }
    { globaldict begin /?pdfmark /pop load def /pdfmark
    /cleartomark load def end } ifelse
/BDC { mark 3 1 roll /BDC pdfmark } bind def
/EMC { mark /EMC pdfmark } bind def
/cairo_store_point { /cairo_point_y exch def /cairo_point_x exch def } def
/Tj { show currentpoint cairo_store_point } bind def
/TJ {
  {
    dup
    type /stringtype eq
    { show } { -0.001 mul 0 cairo_font_matrix dtransform rmoveto } ifelse
  } forall
  currentpoint cairo_store_point
} bind def
/cairo_selectfont { cairo_font_matrix aload pop pop pop 0 0 6 array astore
    cairo_font exch selectfont cairo_point_x cairo_point_y moveto } bind def
/Tf { pop /cairo_font exch def /cairo_font_matrix where
      { pop cairo_selectfont } if } bind def
/Td { matrix translate cairo_font_matrix matrix concatmatrix dup
      /cairo_font_matrix exch def dup 4 get exch 5 get cairo_store_point
      /cairo_font where { pop cairo_selectfont } if } bind def
/Tm { 2 copy 8 2 roll 6 array astore /cairo_font_matrix exch def
      cairo_store_point /cairo_font where { pop cairo_selectfont } if } bind def
/g { setgray } bind def
/rg { setrgbcolor } bind def
/d1 { setcachedevice } bind def
%%EndProlog
%%Page: 1 1
%%BeginPageSetup
%%PageBoundingBox: 0 -1 385 383
%%EndPageSetup
q 0 -1 385 384 rectclip q
0 382.048 386 -383 re W n
0 g
380.973 312.392 m 322.16 376.982 l 319.043 380.404 314.57 382.247 
309.973 382.033 c 75.043 382.033 l 70.441 382.243 65.973 380.404 62.859 
376.982 c 4.043 312.392 l -0.617 307.271 -1.324 299.681 2.316 293.79 c 
98.188 138.568 l 93.637 127.048 91.133 114.49 91.133 101.349 c 91.133 
45.376 136.508 0.001 192.484 0.001 c 192.492 0.001 192.5 0.001 192.508 
0.001 c 192.52 0.001 192.527 0.001 192.535 0.001 c 248.512 0.001 
293.883 45.376 293.883 101.349 c 293.883 114.49 291.383 127.044 286.832 
138.568 c 382.703 293.79 l 386.34 299.681 385.637 307.271 380.973 
312.392 c h
192.508 299.06 m 251.379 299.06 l 192.625 202.697 l 192.598 202.697 
192.566 202.697 192.535 202.697 c 192.484 202.697 l 192.453 202.697 
192.422 202.697 192.395 202.697 c 133.645 299.06 l h
116.344 168.232 m 34.863 300.146 l 71.863 340.775 l 159.414 197.173 l 
142.621 191.38 127.828 181.294 116.344 168.232 c h
216.141 38.126 m 180.27 38.126 l 180.27 107.279 l 152.16 107.279 l 
152.16 132.111 l 156.527 131.993 160.781 132.368 164.922 133.232 c 
169.059 134.095 172.793 135.529 176.133 137.544 c 179.465 139.552 
182.195 142.255 184.324 145.65 c 186.449 149.04 187.625 153.208 187.859 
158.154 c 216.141 158.154 l h
268.676 168.228 m 257.191 181.294 242.398 191.38 225.605 197.173 c 
313.156 340.775 l 350.152 300.146 l h
268.676 168.228 m f
Q Q
showpage
%%Trailer
count op_count sub {pop} repeat
countdictstack dict_count sub {end} repeat
cairo_eps_state restore
%%EOF
