%!PS-Adobe-3.0 EPSF-3.0
%%Creator: cairo 1.10.2 (http://cairographics.org)
%%CreationDate: Thu Jul 31 07:30:18 2014
%%Pages: 1
%%BoundingBox: 0 -1 377 362
%%DocumentData: Clean7Bit
%%LanguageLevel: 2
%%EndComments
%%BeginProlog
/cairo_eps_state save def
/dict_count countdictstack def
/op_count count 1 sub def
userdict begin
/q { gsave } bind def
/Q { grestore } bind def
/cm { 6 array astore concat } bind def
/w { setlinewidth } bind def
/J { setlinecap } bind def
/j { setlinejoin } bind def
/M { setmiterlimit } bind def
/d { setdash } bind def
/m { moveto } bind def
/l { lineto } bind def
/c { curveto } bind def
/h { closepath } bind def
/re { exch dup neg 3 1 roll 5 3 roll moveto 0 rlineto
      0 exch rlineto 0 rlineto closepath } bind def
/S { stroke } bind def
/f { fill } bind def
/f* { eofill } bind def
/n { newpath } bind def
/W { clip } bind def
/W* { eoclip } bind def
/BT { } bind def
/ET { } bind def
/pdfmark where { pop globaldict /?pdfmark /exec load put }
    { globaldict begin /?pdfmark /pop load def /pdfmark
    /cleartomark load def end } ifelse
/BDC { mark 3 1 roll /BDC pdfmark } bind def
/EMC { mark /EMC pdfmark } bind def
/cairo_store_point { /cairo_point_y exch def /cairo_point_x exch def } def
/Tj { show currentpoint cairo_store_point } bind def
/TJ {
  {
    dup
    type /stringtype eq
    { show } { -0.001 mul 0 cairo_font_matrix dtransform rmoveto } ifelse
  } forall
  currentpoint cairo_store_point
} bind def
/cairo_selectfont { cairo_font_matrix aload pop pop pop 0 0 6 array astore
    cairo_font exch selectfont cairo_point_x cairo_point_y moveto } bind def
/Tf { pop /cairo_font exch def /cairo_font_matrix where
      { pop cairo_selectfont } if } bind def
/Td { matrix translate cairo_font_matrix matrix concatmatrix dup
      /cairo_font_matrix exch def dup 4 get exch 5 get cairo_store_point
      /cairo_font where { pop cairo_selectfont } if } bind def
/Tm { 2 copy 8 2 roll 6 array astore /cairo_font_matrix exch def
      cairo_store_point /cairo_font where { pop cairo_selectfont } if } bind def
/g { setgray } bind def
/rg { setrgbcolor } bind def
/d1 { setcachedevice } bind def
%%EndProlog
%%Page: 1 1
%%BeginPageSetup
%%PageBoundingBox: 0 -1 377 362
%%EndPageSetup
q 0 -1 377 363 rectclip q
0 361.646 377 -362 re W n
0.0588235 0.0627451 0.0666667 rg
216.512 299.353 m 232.996 299.353 246.355 285.989 246.355 269.505 c 
246.355 253.025 232.996 239.657 216.512 239.657 c 200.027 239.657 
186.664 253.025 186.664 269.505 c 186.664 285.989 200.027 299.353 
216.512 299.353 c h
216.512 299.353 m f
312.504 290.489 m 307.555 295.423 299.559 295.423 294.645 290.489 c 
234.074 229.931 l 229.262 233.071 223.527 234.915 217.348 234.915 c 
209.723 234.915 202.766 232.118 197.402 227.517 c 134.43 290.489 l 
129.5 295.423 121.496 295.423 116.562 290.489 c 111.637 285.556 111.637 
277.552 116.562 272.626 c 186.664 201.825 l 186.672 12.646 l 186.672 
5.665 192.328 0.001 199.309 0.001 c 206.285 0.001 211.941 5.653 211.941 
12.646 c 211.941 101.853 l 213.699 101.525 215.5 101.345 217.355 
101.345 c 219.211 101.345 221.008 101.525 222.777 101.853 c 222.777 
12.646 l 222.777 5.661 228.43 0.001 235.414 0.001 c 242.383 0.001 
248.047 5.65 248.047 12.646 c 248.105 207.247 l 312.504 272.626 l 
317.441 277.552 317.441 285.556 312.504 290.489 c h
312.504 290.489 m f
0 g
178.504 180.661 m 152.285 180.661 l 148.66 180.661 145.598 179.415 
143.105 176.919 c 140.613 174.427 139.367 170.005 139.367 166.38 c 
139.367 161.056 l 85.648 161.056 l 78.137 161.056 72.051 154.97 72.051 
147.458 c 72.051 140.544 l 72.051 139.134 72.266 137.778 72.66 136.501 
c 74.383 130.962 79.547 126.942 85.648 126.942 c 178.508 126.942 l h
178.504 180.661 m f
370.211 174.2 m 366.355 177.603 361.48 179.755 355.59 180.661 c 256.258 
180.661 l 256.238 126.942 l 375.992 126.942 l 375.992 160.942 l 375.992 
166.38 374.062 170.802 370.211 174.2 c h
370.211 174.2 m f
178.508 111.985 m 56.41 111.985 l 56.41 226.216 l 56.41 229.845 55.051 
233.134 52.332 236.075 c 49.609 239.021 46.324 240.497 42.473 240.497 c 
38.617 240.497 35.332 239.021 32.613 236.075 c 29.895 233.13 28.531 
229.841 28.531 226.216 c 28.531 44.669 l 56.41 44.669 l 56.41 84.107 l 
178.508 84.107 l h
178.508 111.985 m f
256.234 111.985 m 256.227 84.107 l 348.793 84.107 l 348.793 44.669 l 
376.672 44.669 l 376.672 111.985 l h
256.234 111.985 m f
49.965 361.646 m 22.371 361.646 0 339.271 0 311.677 c 0 284.099 22.371 
261.728 49.965 261.728 c 77.551 261.728 99.914 284.099 99.914 311.677 c 
99.914 339.271 77.551 361.646 49.965 361.646 c h
49.965 276.903 m 30.777 276.903 15.168 292.505 15.168 311.681 c 15.168 
330.876 30.777 346.485 49.965 346.485 c 69.148 346.485 84.746 330.872 
84.746 311.681 c 84.742 292.505 69.145 276.903 49.965 276.903 c h
49.965 276.903 m f
54.258 314.435 m 54.262 333.724 l 54.262 336.095 52.34 338.005 49.965 
338.005 c 47.578 338.005 45.656 336.091 45.656 333.724 c 45.656 305.833 
l 54.258 305.833 l 54.258 305.837 l 73.547 305.833 l 75.914 305.833 
77.844 307.751 77.844 310.13 c 77.844 312.513 75.914 314.435 73.547 
314.435 c h
54.258 314.435 m f
Q Q
showpage
%%Trailer
count op_count sub {pop} repeat
countdictstack dict_count sub {end} repeat
cairo_eps_state restore
%%EOF
