%!PS-Adobe-3.0 EPSF-3.0
%%Creator: cairo 1.10.2 (http://cairographics.org)
%%CreationDate: Wed Jul 30 08:47:40 2014
%%Pages: 1
%%BoundingBox: 0 -1 388 361
%%DocumentData: Clean7Bit
%%LanguageLevel: 2
%%EndComments
%%BeginProlog
/cairo_eps_state save def
/dict_count countdictstack def
/op_count count 1 sub def
userdict begin
/q { gsave } bind def
/Q { grestore } bind def
/cm { 6 array astore concat } bind def
/w { setlinewidth } bind def
/J { setlinecap } bind def
/j { setlinejoin } bind def
/M { setmiterlimit } bind def
/d { setdash } bind def
/m { moveto } bind def
/l { lineto } bind def
/c { curveto } bind def
/h { closepath } bind def
/re { exch dup neg 3 1 roll 5 3 roll moveto 0 rlineto
      0 exch rlineto 0 rlineto closepath } bind def
/S { stroke } bind def
/f { fill } bind def
/f* { eofill } bind def
/n { newpath } bind def
/W { clip } bind def
/W* { eoclip } bind def
/BT { } bind def
/ET { } bind def
/pdfmark where { pop globaldict /?pdfmark /exec load put }
    { globaldict begin /?pdfmark /pop load def /pdfmark
    /cleartomark load def end } ifelse
/BDC { mark 3 1 roll /BDC pdfmark } bind def
/EMC { mark /EMC pdfmark } bind def
/cairo_store_point { /cairo_point_y exch def /cairo_point_x exch def } def
/Tj { show currentpoint cairo_store_point } bind def
/TJ {
  {
    dup
    type /stringtype eq
    { show } { -0.001 mul 0 cairo_font_matrix dtransform rmoveto } ifelse
  } forall
  currentpoint cairo_store_point
} bind def
/cairo_selectfont { cairo_font_matrix aload pop pop pop 0 0 6 array astore
    cairo_font exch selectfont cairo_point_x cairo_point_y moveto } bind def
/Tf { pop /cairo_font exch def /cairo_font_matrix where
      { pop cairo_selectfont } if } bind def
/Td { matrix translate cairo_font_matrix matrix concatmatrix dup
      /cairo_font_matrix exch def dup 4 get exch 5 get cairo_store_point
      /cairo_font where { pop cairo_selectfont } if } bind def
/Tm { 2 copy 8 2 roll 6 array astore /cairo_font_matrix exch def
      cairo_store_point /cairo_font where { pop cairo_selectfont } if } bind def
/g { setgray } bind def
/rg { setrgbcolor } bind def
/d1 { setcachedevice } bind def
%%EndProlog
%%Page: 1 1
%%BeginPageSetup
%%PageBoundingBox: 0 -1 388 361
%%EndPageSetup
q 0 -1 388 362 rectclip q
0 360.059 388 -361 re W n
0 g
356.926 43.954 m 356.926 0.001 l 387.996 0.001 l 387.996 75.024 l 31.07 
75.024 l 31.07 202.333 l 31.07 206.38 29.555 210.04 26.523 213.325 c 
23.492 216.606 19.828 218.247 15.535 218.247 c 11.242 218.247 7.578 
216.606 4.547 213.325 c 1.516 210.04 0 206.376 0 202.333 c 0 0.001 l 
31.07 0.001 l 31.07 43.954 l h
356.926 43.954 m f
87.16 120.872 m 94.992 120.872 101.809 123.649 107.621 129.208 c 113.43 
134.762 116.336 141.458 116.336 149.29 c 116.336 157.122 113.43 163.813 
107.621 169.372 c 101.809 174.926 94.992 177.708 87.16 177.708 c 79.332 
177.708 72.637 174.926 67.078 169.372 c 61.523 163.813 58.742 157.122 
58.742 149.29 c 58.742 141.458 61.523 134.762 67.078 129.208 c 72.637 
123.649 79.332 120.872 87.16 120.872 c h
87.16 120.872 m f
107.207 128.829 m 67.477 128.829 l 72.953 123.528 79.516 120.872 87.16 
120.872 c 94.809 120.872 101.488 123.528 107.207 128.829 c h
107.207 128.829 m f
380.797 144.364 m 376.5 148.153 371.07 150.551 364.504 151.563 c 
139.438 173.536 l 137.922 173.536 l 133.879 173.536 130.469 172.149 
127.691 169.372 c 124.91 166.59 123.523 163.18 123.523 159.137 c 
123.523 120.297 l 121.879 123.665 96.77 114.051 87.16 114.051 c 77.492 
114.051 69.113 117.528 62.258 124.383 c 61.066 125.571 59.984 126.813 
59 128.09 c 52.91 126.126 48.5 120.419 48.5 113.672 c 48.5 106.852 l 
48.5 98.481 55.285 91.696 63.656 91.696 c 387.238 91.696 l 387.238 
129.587 l 387.238 135.649 385.09 140.575 380.797 144.364 c h
380.797 144.364 m f
205.633 360.059 m 174.879 360.059 149.945 335.122 149.945 304.368 c 
149.945 273.633 174.879 248.7 205.633 248.7 c 236.379 248.7 261.301 
273.633 261.301 304.368 c 261.301 335.122 236.379 360.059 205.633 
360.059 c h
205.633 265.614 m 184.25 265.614 166.852 283.001 166.852 304.372 c 
166.852 325.766 184.25 343.165 205.633 343.165 c 227.012 343.165 
244.395 325.762 244.395 304.372 c 244.395 283.001 227.008 265.614 
205.633 265.614 c h
205.633 265.614 m f
210.414 307.442 m 210.418 328.942 l 210.418 331.583 208.277 333.715 
205.633 333.715 c 202.973 333.715 200.828 331.583 200.828 328.942 c 
200.828 297.856 l 210.414 297.856 l 210.414 297.86 l 231.914 297.856 l 
234.555 297.856 236.703 299.993 236.703 302.645 c 236.703 305.301 
234.551 307.442 231.914 307.442 c h
210.414 307.442 m f
Q Q
showpage
%%Trailer
count op_count sub {pop} repeat
countdictstack dict_count sub {end} repeat
cairo_eps_state restore
%%EOF
