%!PS-Adobe-3.0 EPSF-3.0
%%Creator: cairo 1.10.2 (http://cairographics.org)
%%CreationDate: Fri Aug  1 07:19:56 2014
%%Pages: 1
%%BoundingBox: 0 -1 214 389
%%DocumentData: Clean7Bit
%%LanguageLevel: 2
%%EndComments
%%BeginProlog
/cairo_eps_state save def
/dict_count countdictstack def
/op_count count 1 sub def
userdict begin
/q { gsave } bind def
/Q { grestore } bind def
/cm { 6 array astore concat } bind def
/w { setlinewidth } bind def
/J { setlinecap } bind def
/j { setlinejoin } bind def
/M { setmiterlimit } bind def
/d { setdash } bind def
/m { moveto } bind def
/l { lineto } bind def
/c { curveto } bind def
/h { closepath } bind def
/re { exch dup neg 3 1 roll 5 3 roll moveto 0 rlineto
      0 exch rlineto 0 rlineto closepath } bind def
/S { stroke } bind def
/f { fill } bind def
/f* { eofill } bind def
/n { newpath } bind def
/W { clip } bind def
/W* { eoclip } bind def
/BT { } bind def
/ET { } bind def
/pdfmark where { pop globaldict /?pdfmark /exec load put }
    { globaldict begin /?pdfmark /pop load def /pdfmark
    /cleartomark load def end } ifelse
/BDC { mark 3 1 roll /BDC pdfmark } bind def
/EMC { mark /EMC pdfmark } bind def
/cairo_store_point { /cairo_point_y exch def /cairo_point_x exch def } def
/Tj { show currentpoint cairo_store_point } bind def
/TJ {
  {
    dup
    type /stringtype eq
    { show } { -0.001 mul 0 cairo_font_matrix dtransform rmoveto } ifelse
  } forall
  currentpoint cairo_store_point
} bind def
/cairo_selectfont { cairo_font_matrix aload pop pop pop 0 0 6 array astore
    cairo_font exch selectfont cairo_point_x cairo_point_y moveto } bind def
/Tf { pop /cairo_font exch def /cairo_font_matrix where
      { pop cairo_selectfont } if } bind def
/Td { matrix translate cairo_font_matrix matrix concatmatrix dup
      /cairo_font_matrix exch def dup 4 get exch 5 get cairo_store_point
      /cairo_font where { pop cairo_selectfont } if } bind def
/Tm { 2 copy 8 2 roll 6 array astore /cairo_font_matrix exch def
      cairo_store_point /cairo_font where { pop cairo_selectfont } if } bind def
/g { setgray } bind def
/rg { setrgbcolor } bind def
/d1 { setcachedevice } bind def
%%EndProlog
%%Page: 1 1
%%BeginPageSetup
%%PageBoundingBox: 0 -1 214 389
%%EndPageSetup
q 0 -1 214 390 rectclip q
0 388.026 214 -389 re W n
0 g
212.848 108.713 m 212.848 114.944 208.633 120.147 202.93 121.776 c 
202.93 134.252 l 209.059 135.588 213.652 141.033 213.652 147.565 c 
213.652 154.092 209.059 159.537 202.93 160.873 c 202.93 186.209 l 
202.93 223.408 146.293 215.35 146.293 303.166 c 146.293 309.233 144.645 
312.615 138.242 312.615 c 135.426 312.615 121.117 312.592 106.828 
312.565 c 92.539 312.592 78.227 312.615 75.41 312.615 c 69.004 312.615 
67.359 309.541 67.359 303.166 c 67.359 212.869 10.723 223.408 10.723 
186.209 c 10.723 160.873 l 4.594 159.537 0 154.092 0 147.565 c 0 
141.033 4.594 135.588 10.723 134.252 c 10.723 121.776 l 5.02 120.147 
0.805 114.944 0.805 108.713 c 0.805 102.479 5.02 97.276 10.723 95.647 c 
10.723 82.67 l 5.426 80.795 1.609 75.795 1.609 69.858 c 1.609 63.92 
5.426 58.92 10.723 57.045 c 10.723 29.916 l 10.723 13.397 24.121 -0.002 
40.641 -0.002 c 173.012 -0.002 l 189.527 -0.002 202.93 13.397 202.93 
29.916 c 202.93 57.045 l 208.227 58.92 212.043 63.92 212.043 69.858 c 
212.043 75.795 208.227 80.795 202.93 82.67 c 202.93 95.647 l 208.633 
97.276 212.848 102.479 212.848 108.713 c h
212.848 108.713 m f
66.824 327.268 m 146.828 327.268 l 152.766 327.268 154.77 330.666 
154.77 336.264 c 154.77 352.686 l 154.77 372.201 138.953 388.026 
119.441 388.026 c 94.211 388.026 l 74.703 388.026 58.883 372.201 58.883 
352.686 c 58.883 336.264 l 58.883 330.666 60.879 327.268 66.824 327.268 
c h
66.824 327.268 m f
Q Q
showpage
%%Trailer
count op_count sub {pop} repeat
countdictstack dict_count sub {end} repeat
cairo_eps_state restore
%%EOF
