%!PS-Adobe-3.0 EPSF-3.0
%%Creator: cairo 1.10.2 (http://cairographics.org)
%%CreationDate: Wed Jul 30 08:47:38 2014
%%Pages: 1
%%BoundingBox: 0 -1 389 322
%%DocumentData: Clean7Bit
%%LanguageLevel: 2
%%EndComments
%%BeginProlog
/cairo_eps_state save def
/dict_count countdictstack def
/op_count count 1 sub def
userdict begin
/q { gsave } bind def
/Q { grestore } bind def
/cm { 6 array astore concat } bind def
/w { setlinewidth } bind def
/J { setlinecap } bind def
/j { setlinejoin } bind def
/M { setmiterlimit } bind def
/d { setdash } bind def
/m { moveto } bind def
/l { lineto } bind def
/c { curveto } bind def
/h { closepath } bind def
/re { exch dup neg 3 1 roll 5 3 roll moveto 0 rlineto
      0 exch rlineto 0 rlineto closepath } bind def
/S { stroke } bind def
/f { fill } bind def
/f* { eofill } bind def
/n { newpath } bind def
/W { clip } bind def
/W* { eoclip } bind def
/BT { } bind def
/ET { } bind def
/pdfmark where { pop globaldict /?pdfmark /exec load put }
    { globaldict begin /?pdfmark /pop load def /pdfmark
    /cleartomark load def end } ifelse
/BDC { mark 3 1 roll /BDC pdfmark } bind def
/EMC { mark /EMC pdfmark } bind def
/cairo_store_point { /cairo_point_y exch def /cairo_point_x exch def } def
/Tj { show currentpoint cairo_store_point } bind def
/TJ {
  {
    dup
    type /stringtype eq
    { show } { -0.001 mul 0 cairo_font_matrix dtransform rmoveto } ifelse
  } forall
  currentpoint cairo_store_point
} bind def
/cairo_selectfont { cairo_font_matrix aload pop pop pop 0 0 6 array astore
    cairo_font exch selectfont cairo_point_x cairo_point_y moveto } bind def
/Tf { pop /cairo_font exch def /cairo_font_matrix where
      { pop cairo_selectfont } if } bind def
/Td { matrix translate cairo_font_matrix matrix concatmatrix dup
      /cairo_font_matrix exch def dup 4 get exch 5 get cairo_store_point
      /cairo_font where { pop cairo_selectfont } if } bind def
/Tm { 2 copy 8 2 roll 6 array astore /cairo_font_matrix exch def
      cairo_store_point /cairo_font where { pop cairo_selectfont } if } bind def
/g { setgray } bind def
/rg { setrgbcolor } bind def
/d1 { setcachedevice } bind def
%%EndProlog
%%Page: 1 1
%%BeginPageSetup
%%PageBoundingBox: 0 -1 389 322
%%EndPageSetup
q 0 -1 389 323 rectclip q
0 321.764 389 -322 re W n
0 g
183.477 157.553 m 54.043 157.553 l 44.496 157.553 36.758 149.815 36.758 
140.268 c 36.758 87.381 l 36.758 77.83 44.496 70.092 54.043 70.092 c 
183.477 70.092 l 193.027 70.092 200.766 77.83 200.766 87.381 c 200.766 
140.268 l 200.766 149.815 193.027 157.553 183.477 157.553 c h
183.477 157.553 m f
237.508 177.534 m 237.508 196.026 231.641 201.705 221.27 210.155 c 
221.055 210.33 l 209.398 219.83 199.773 227.366 190.766 234.041 c 
189.766 234.784 188.09 236.327 188.09 238.319 c 188.09 258.635 l 
198.938 258.635 l 201.145 258.635 202.938 260.424 202.938 262.635 c 
202.938 285.795 l 202.938 285.944 202.93 286.096 202.91 286.241 c 
202.621 305.869 186.535 321.764 166.855 321.764 c 70.656 321.764 l 
50.77 321.764 34.59 305.584 34.59 285.698 c 34.59 285.577 34.594 
285.455 34.605 285.334 c 34.605 262.635 l 34.605 260.428 36.395 258.635 
38.605 258.635 c 49.438 258.635 l 49.438 238.401 l 49.438 236.405 
47.762 234.866 46.762 234.123 c 37.758 227.452 28.137 219.916 16.473 
210.416 c 16.258 210.237 l 5.887 201.787 0.02 196.108 0.02 177.616 c 
0.02 169.979 0.016 138.112 0.008 107.346 c 0.004 78.631 0 50.873 0 
44.666 c 0 27.272 13.234 9.28 35.387 9.28 c 119.488 9.28 l 119.488 9.28 
194.18 9.198 202.141 9.198 c 224.289 9.198 237.523 27.19 237.523 44.584 
c 237.523 50.791 237.523 78.549 237.52 107.264 c 237.512 138.03 237.508 
169.897 237.508 177.534 c h
202.141 29.198 m 194.18 29.198 119.508 29.28 119.5 29.28 c 35.387 29.28 
l 25.281 29.28 20 37.022 20 44.666 c 20 50.873 20.004 78.627 20.008 
107.342 c 20.012 138.108 20.02 169.979 20.02 177.616 c 20.02 187.506 
20.859 188.19 28.891 194.733 c 29.105 194.912 l 40.527 204.217 49.922 
211.573 58.668 218.057 c 65.512 223.127 69.434 230.541 69.434 238.401 c 
69.434 258.635 l 168.09 258.635 l 168.09 238.319 l 168.09 230.463 
172.012 223.049 178.855 217.975 c 187.609 211.487 197.004 204.127 
208.422 194.83 c 208.637 194.651 l 216.668 188.108 217.508 187.424 
217.508 177.534 c 217.508 169.897 217.512 138.03 217.52 107.26 c 217.52 
78.549 217.523 50.791 217.523 44.584 c 217.523 36.936 212.242 29.198 
202.141 29.198 c h
202.141 29.198 m f
326.539 178.959 m 326.402 179.244 326.156 179.463 325.855 179.569 c 
309.754 185.123 l 309.453 185.225 309.125 185.205 308.836 185.069 c 
308.551 184.928 308.332 184.682 308.23 184.381 c 306.203 178.506 l 
305.988 177.881 306.32 177.198 306.945 176.983 c 323.043 171.428 l 
323.172 171.385 323.305 171.362 323.434 171.362 c 323.934 171.362 
324.398 171.674 324.57 172.17 c 326.598 178.041 l 326.699 178.342 
326.68 178.674 326.539 178.959 c h
326.539 178.959 m f
319.395 160.862 m 303.297 166.416 l 302.996 166.518 302.668 166.498 
302.383 166.358 c 302.094 166.221 301.875 165.975 301.773 165.67 c 
299.746 159.799 l 299.527 159.17 299.863 158.491 300.488 158.272 c 
316.586 152.721 l 316.715 152.674 316.844 152.655 316.977 152.655 c 
317.16 152.655 317.336 152.694 317.504 152.772 c 317.789 152.912 
318.008 153.162 318.113 153.459 c 320.141 159.334 l 320.355 159.959 
320.023 160.643 319.395 160.862 c h
319.395 160.862 m f
313.242 143.022 m 297.141 148.577 l 296.512 148.791 295.832 148.459 
295.617 147.83 c 293.59 141.959 l 293.484 141.659 293.504 141.33 
293.645 141.045 c 293.781 140.756 294.031 140.537 294.332 140.436 c 
310.43 134.877 l 310.562 134.834 310.691 134.811 310.82 134.811 c 
311.32 134.811 311.785 135.127 311.957 135.623 c 313.984 141.494 l 
314.086 141.799 314.066 142.127 313.93 142.412 c 313.789 142.698 
313.543 142.92 313.242 143.022 c h
313.242 143.022 m f
306.598 123.768 m 290.496 129.323 l 290.199 129.428 289.867 129.409 
289.582 129.268 c 289.297 129.131 289.074 128.881 288.973 128.584 c 
286.945 122.705 l 286.73 122.08 287.062 121.397 287.691 121.182 c 
303.789 115.627 l 303.918 115.584 304.051 115.561 304.18 115.561 c 
304.676 115.561 305.145 115.873 305.316 116.373 c 307.34 122.244 l 
307.445 122.545 307.426 122.873 307.285 123.162 c 307.145 123.448 
306.898 123.666 306.598 123.768 c h
306.598 123.768 m f
382.082 246.573 m 357.883 254.924 l 367.121 281.69 l 374.699 279.077 l 
375.398 278.834 376.129 278.709 376.867 278.709 c 379.699 278.709 
382.223 280.51 383.148 283.19 c 383.727 284.869 383.621 286.67 382.84 
288.268 c 382.066 289.862 380.711 291.061 379.035 291.639 c 338.258 
305.713 l 337.555 305.955 336.824 306.077 336.09 306.077 c 333.254 
306.077 330.73 304.276 329.805 301.596 c 329.227 299.92 329.336 298.116 
330.113 296.522 c 330.891 294.924 332.242 293.725 333.922 293.147 c 
340.254 290.963 l 331.016 264.194 l 306.812 272.545 l 302.359 274.084 
297.652 272.194 296.32 268.338 c 294.988 264.487 297.535 260.096 
301.988 258.561 c 302.961 258.225 l 253.238 114.135 l 252.613 112.33 
252.734 110.35 253.57 108.635 c 254.406 106.916 255.891 105.604 257.695 
104.979 c 282.012 96.588 l 249.227 1.592 l 249.043 1.061 249.254 0.471 
249.734 0.178 c 249.93 0.057 250.145 -0.002 250.363 -0.002 c 250.68 
-0.002 250.992 0.123 251.227 0.366 c 266.566 16.252 l 266.688 16.377 
266.781 16.53 266.84 16.694 c 293.09 92.764 l 317.406 84.373 l 318.184 
84.108 318.977 83.979 319.758 83.979 c 322.742 83.979 325.535 85.854 
326.562 88.834 c 376.285 232.92 l 377.258 232.584 l 381.711 231.049 
386.422 232.936 387.754 236.787 c 389.082 240.647 386.539 245.034 
382.082 246.573 c h
302.336 212.268 m 316.41 253.057 l 326.027 249.737 l 311.953 208.952 l 
h
315.301 100.338 m 269.199 116.244 l 298.605 201.459 l 344.707 185.549 l 
h
348.438 196.358 m 338.816 199.678 l 352.895 240.467 l 362.512 237.147 l 
h
348.438 196.358 m f
Q Q
showpage
%%Trailer
count op_count sub {pop} repeat
countdictstack dict_count sub {end} repeat
cairo_eps_state restore
%%EOF
