%!PS-Adobe-3.0 EPSF-3.0
%%Creator: cairo 1.10.2 (http://cairographics.org)
%%CreationDate: Thu Jul 31 07:30:22 2014
%%Pages: 1
%%BoundingBox: 0 -1 377 346
%%DocumentData: Clean7Bit
%%LanguageLevel: 2
%%EndComments
%%BeginProlog
/cairo_eps_state save def
/dict_count countdictstack def
/op_count count 1 sub def
userdict begin
/q { gsave } bind def
/Q { grestore } bind def
/cm { 6 array astore concat } bind def
/w { setlinewidth } bind def
/J { setlinecap } bind def
/j { setlinejoin } bind def
/M { setmiterlimit } bind def
/d { setdash } bind def
/m { moveto } bind def
/l { lineto } bind def
/c { curveto } bind def
/h { closepath } bind def
/re { exch dup neg 3 1 roll 5 3 roll moveto 0 rlineto
      0 exch rlineto 0 rlineto closepath } bind def
/S { stroke } bind def
/f { fill } bind def
/f* { eofill } bind def
/n { newpath } bind def
/W { clip } bind def
/W* { eoclip } bind def
/BT { } bind def
/ET { } bind def
/pdfmark where { pop globaldict /?pdfmark /exec load put }
    { globaldict begin /?pdfmark /pop load def /pdfmark
    /cleartomark load def end } ifelse
/BDC { mark 3 1 roll /BDC pdfmark } bind def
/EMC { mark /EMC pdfmark } bind def
/cairo_store_point { /cairo_point_y exch def /cairo_point_x exch def } def
/Tj { show currentpoint cairo_store_point } bind def
/TJ {
  {
    dup
    type /stringtype eq
    { show } { -0.001 mul 0 cairo_font_matrix dtransform rmoveto } ifelse
  } forall
  currentpoint cairo_store_point
} bind def
/cairo_selectfont { cairo_font_matrix aload pop pop pop 0 0 6 array astore
    cairo_font exch selectfont cairo_point_x cairo_point_y moveto } bind def
/Tf { pop /cairo_font exch def /cairo_font_matrix where
      { pop cairo_selectfont } if } bind def
/Td { matrix translate cairo_font_matrix matrix concatmatrix dup
      /cairo_font_matrix exch def dup 4 get exch 5 get cairo_store_point
      /cairo_font where { pop cairo_selectfont } if } bind def
/Tm { 2 copy 8 2 roll 6 array astore /cairo_font_matrix exch def
      cairo_store_point /cairo_font where { pop cairo_selectfont } if } bind def
/g { setgray } bind def
/rg { setrgbcolor } bind def
/d1 { setcachedevice } bind def
%%EndProlog
%%Page: 1 1
%%BeginPageSetup
%%PageBoundingBox: 0 -1 377 346
%%EndPageSetup
q 0 -1 377 347 rectclip q
0 345.909 377 -346 re W n
0 g
369.789 314.893 m 361.41 327.448 346.176 334.268 327.988 333.624 c 
313.211 333.1 296.414 324.979 283.668 317.284 c 283.668 317.381 l 
283.68 317.706 283.715 318.018 283.715 318.346 c 283.715 333.475 
271.449 345.745 256.316 345.745 c 255.891 345.745 188.316 345.909 
188.316 345.909 c 188.316 345.85 l 188.316 345.85 121.008 345.69 
120.582 345.69 c 105.449 345.69 93.184 333.421 93.184 318.288 c 93.184 
317.967 93.219 317.647 93.23 317.327 c 93.23 317.233 l 80.484 324.921 
63.688 333.046 48.914 333.573 c 30.715 334.217 15.488 327.389 7.105 
314.835 c -3.5 298.944 -2.23 276.374 10.879 247.737 c 30.676 204.503 
77.203 172.057 100.262 158.006 c 111.547 131.792 134.867 112.096 
165.508 105.921 c 166.051 104.639 166.34 103.389 166.34 102.112 c 
166.34 60.026 l 147.926 60.026 l 138.242 60.026 130.391 54.046 130.391 
46.659 c 130.391 44.682 l 124.07 44.682 l 111.883 44.682 102.004 34.803 
102.004 22.616 c 102.004 -0.001 l 155.684 -0.001 215.266 0.053 274.895 
0.053 c 274.895 22.671 l 274.895 34.858 265.016 44.737 252.828 44.737 c 
246.508 44.737 l 246.508 46.714 l 246.508 54.096 238.656 60.081 228.973 
60.081 c 210.559 60.081 l 210.559 102.167 l 210.559 103.444 210.848 
104.694 211.387 105.975 c 242.031 112.151 265.348 131.846 276.637 
158.061 c 299.691 172.112 346.223 204.557 366.016 247.792 c 379.129 
276.428 380.398 299.003 369.789 314.893 c h
33.199 257.956 m 24.137 277.753 22.121 293.112 27.523 301.206 c 32.703 
308.967 44.535 309.163 48.035 309.038 c 60.547 308.589 80.59 296.956 
93.172 287.858 c 93.141 255.085 92.773 193.342 92.797 192.495 c 71.652 
207.803 45.648 230.776 33.199 257.956 c h
343.695 258.014 m 331.281 230.901 305.262 207.913 284.102 192.581 c 
284.125 193.421 283.758 255.143 283.727 287.913 c 296.309 297.01 
316.348 308.647 328.863 309.089 c 332.363 309.217 344.195 309.018 
349.371 301.26 c 354.773 293.167 352.758 277.807 343.695 258.014 c h
343.695 258.014 m f
Q Q
showpage
%%Trailer
count op_count sub {pop} repeat
countdictstack dict_count sub {end} repeat
cairo_eps_state restore
%%EOF
