%!PS-Adobe-3.0 EPSF-3.0
%%Creator: cairo 1.10.2 (http://cairographics.org)
%%CreationDate: Thu Jul 31 07:30:15 2014
%%Pages: 1
%%BoundingBox: 0 -1 179 384
%%DocumentData: Clean7Bit
%%LanguageLevel: 2
%%EndComments
%%BeginProlog
/cairo_eps_state save def
/dict_count countdictstack def
/op_count count 1 sub def
userdict begin
/q { gsave } bind def
/Q { grestore } bind def
/cm { 6 array astore concat } bind def
/w { setlinewidth } bind def
/J { setlinecap } bind def
/j { setlinejoin } bind def
/M { setmiterlimit } bind def
/d { setdash } bind def
/m { moveto } bind def
/l { lineto } bind def
/c { curveto } bind def
/h { closepath } bind def
/re { exch dup neg 3 1 roll 5 3 roll moveto 0 rlineto
      0 exch rlineto 0 rlineto closepath } bind def
/S { stroke } bind def
/f { fill } bind def
/f* { eofill } bind def
/n { newpath } bind def
/W { clip } bind def
/W* { eoclip } bind def
/BT { } bind def
/ET { } bind def
/pdfmark where { pop globaldict /?pdfmark /exec load put }
    { globaldict begin /?pdfmark /pop load def /pdfmark
    /cleartomark load def end } ifelse
/BDC { mark 3 1 roll /BDC pdfmark } bind def
/EMC { mark /EMC pdfmark } bind def
/cairo_store_point { /cairo_point_y exch def /cairo_point_x exch def } def
/Tj { show currentpoint cairo_store_point } bind def
/TJ {
  {
    dup
    type /stringtype eq
    { show } { -0.001 mul 0 cairo_font_matrix dtransform rmoveto } ifelse
  } forall
  currentpoint cairo_store_point
} bind def
/cairo_selectfont { cairo_font_matrix aload pop pop pop 0 0 6 array astore
    cairo_font exch selectfont cairo_point_x cairo_point_y moveto } bind def
/Tf { pop /cairo_font exch def /cairo_font_matrix where
      { pop cairo_selectfont } if } bind def
/Td { matrix translate cairo_font_matrix matrix concatmatrix dup
      /cairo_font_matrix exch def dup 4 get exch 5 get cairo_store_point
      /cairo_font where { pop cairo_selectfont } if } bind def
/Tm { 2 copy 8 2 roll 6 array astore /cairo_font_matrix exch def
      cairo_store_point /cairo_font where { pop cairo_selectfont } if } bind def
/g { setgray } bind def
/rg { setrgbcolor } bind def
/d1 { setcachedevice } bind def
%%EndProlog
%%Page: 1 1
%%BeginPageSetup
%%PageBoundingBox: 0 -1 179 384
%%EndPageSetup
q 0 -1 179 385 rectclip q
0 383.473 179 -384 re W n
0 g
178.145 233.652 m 178.145 244.223 173.992 253.301 168.105 257.078 c 
173.988 260.856 178.145 269.934 178.145 280.504 c 178.145 294.453 
170.902 305.805 162 305.817 c 149.41 305.817 l 149.41 305.817 142.059 
326.422 135.406 326.422 c 117.453 326.422 l 117.453 331.567 l 135.512 
331.567 l 136.285 331.567 136.914 332.195 136.914 332.969 c 136.914 
341.746 l 136.914 342.52 136.285 343.149 135.512 343.149 c 117.453 
343.149 l 117.453 350.125 l 117.453 351.422 116.402 352.473 115.105 
352.473 c 97.293 352.473 l 97.293 368.969 l 102.969 368.969 l 104.129 
368.969 105.066 369.91 105.066 371.067 c 105.066 381.375 l 105.066 
382.535 104.129 383.473 102.969 383.473 c 75.176 383.473 l 74.02 
383.473 73.078 382.535 73.078 381.375 c 73.078 371.067 l 73.078 369.91 
74.02 368.969 75.176 368.969 c 80.852 368.969 l 80.852 352.473 l 63.043 
352.473 l 61.742 352.473 60.691 351.422 60.691 350.125 c 60.691 343.149 
l 42.637 343.149 l 41.859 343.149 41.23 342.52 41.23 341.742 c 41.23 
332.969 l 41.23 332.192 41.859 331.563 42.637 331.563 c 61.09 331.563 l 
61.09 326.422 l 42.738 326.422 l 36.086 326.422 28.738 305.813 28.738 
305.813 c 16.148 305.813 l 7.242 305.805 0 294.449 0 280.504 c 0 
269.934 4.156 260.852 10.039 257.074 c 4.156 253.301 0 244.223 0 
233.649 c 0 219.969 6.961 208.789 15.617 208.36 c 15.617 97.445 l 6.961 
97.016 0 85.836 0 72.156 c 0 61.582 4.156 52.504 10.039 48.727 c 4.156 
44.949 0 35.875 0 25.301 c 0 11.352 7.238 0 16.133 0 c 162.012 0 l 
170.906 0 178.145 11.352 178.145 25.301 c 178.145 35.875 173.992 44.953 
168.105 48.727 c 173.988 52.508 178.145 61.582 178.145 72.156 c 178.145 
85.836 171.188 97.016 162.527 97.445 c 162.527 208.363 l 171.188 
208.789 178.145 219.969 178.145 233.652 c h
178.145 233.652 m f
Q Q
showpage
%%Trailer
count op_count sub {pop} repeat
countdictstack dict_count sub {end} repeat
cairo_eps_state restore
%%EOF
