<?xml version="1.0" encoding="iso-8859-1"?>
<!-- Generator: Adobe Illustrator 16.0.0, SVG Export Plug-In . SVG Version: 6.00 Build 0)  -->
<!DOCTYPE svg PUBLIC "-//W3C//DTD SVG 1.1//EN" "http://www.w3.org/Graphics/SVG/1.1/DTD/svg11.dtd">
<svg version="1.1" xmlns="http://www.w3.org/2000/svg" xmlns:xlink="http://www.w3.org/1999/xlink" x="0px" y="0px" width="512px"
	 height="512px" viewBox="0 0 512 512" style="enable-background:new 0 0 512 512;" xml:space="preserve">
<g id="Guides_For_Artboard">
</g>
<g id="_x30_">
</g>
<g id="_x31_">
</g>
<g id="_x32_">
</g>
<g id="_x33_">
</g>
<g id="_x34_">
</g>
<g id="_x35_">
</g>
<g id="_x36_">
</g>
<g id="_x37_">
</g>
<g id="_x38_">
</g>
<g id="_x39_">
</g>
<g id="_x31_0">
</g>
<g id="_x31_1">
</g>
<g id="_x31_2">
</g>
<g id="_x31_3">
</g>
<g id="_x31_4">
</g>
<g id="_x31_5">
</g>
<g id="_x31_6">
	<path d="M497.091,304.34c-3.247-16.911-13.512-30.091-28.871-39.032c-12.453-8.384-27.7-13.38-44.232-13.38
		c-1.15,0-26.611,0.005-29.029,0.005l-46.021,44.226c-10.082,9.636-21.975,13.545-26.564,8.746l-6.235-6.527
		c-4.587-4.804-0.135-16.507,9.949-26.139l37.082-35.42c-5.767-4.077-11.68-8.819-17.662-14.042l-56.599,54.065
		c-10.084,9.635-21.975,13.545-26.566,8.745l-6.233-6.527c-4.589-4.804-0.135-16.508,9.949-26.139l55.489-53.004
		c-5.811-5.953-11.569-12.094-17.205-18.275l-37.704,36.016l-34.285,32.75c-10.082,9.635-21.975,13.544-26.563,8.745l-6.234-6.527
		c-4.589-4.803-0.135-16.508,9.949-26.139c0,0,25.556-28.032,37.828-38.815s35.035-30.786,35.035-30.786
		c-18.277-21.021-33.638-39.35-42.524-47.005c-26.91-23.181-56.988,19.025-40.718,44.493c11.523,23.722-20.336,63.327-70.496,54.516
		c-50.159-8.811-58.292-55.583-69.137-65.07c-10.845-9.488-47.229-9.104-47.229,15.853c0,24.958,0.124,178.667,0.124,200.291
		c-2.033,19.658,21.347,48.88,47.782,48.88s71.155,0,86.084,0c14.925,0,32.535-32.535,57.614-32.535
		c25.078,0,50.836,32.535,66.426,32.535c15.589,0,119.294,0,147.085,0s63.289-39.285,65.94-42.404
		c0.086-0.09,0.18-0.179,0.268-0.266c0.036-0.066,0.063-0.129,0.1-0.194c10.02-11.981,16.047-27.013,16.047-43.388
		C499.734,316.266,498.759,310.17,497.091,304.34z"/>
</g>
<g id="_x31_7">
</g>
<g id="_x31_8">
</g>
<g id="_x31_9">
</g>
<g id="_x32_0">
</g>
<g id="_x32_1">
</g>
<g id="_x32_2">
</g>
<g id="_x32_3">
</g>
<g id="_x32_4">
</g>
<g id="_x32_5">
</g>
<g id="_x32_6">
</g>
<g id="_x32_7">
</g>
<g id="_x32_8">
</g>
<g id="_x32_9">
</g>
<g id="_x33_0">
</g>
<g id="_x33_1">
</g>
<g id="_x33_2">
</g>
<g id="_x33_3">
</g>
<g id="_x33_4">
</g>
<g id="_x33_5">
</g>
<g id="_x33_6">
</g>
<g id="_x33_7">
</g>
<g id="_x33_8">
</g>
<g id="_x33_9">
</g>
<g id="_x34_0">
</g>
<g id="_x34_1">
</g>
<g id="_x34_2">
</g>
<g id="_x34_3">
</g>
<g id="_x34_4">
</g>
<g id="_x34_5">
</g>
<g id="_x34_6">
</g>
<g id="_x34_7">
</g>
<g id="_x34_8">
</g>
<g id="_x34_9">
</g>
<g id="_x35_0">
</g>
<g id="_x35_1">
</g>
<g id="_x35_2">
</g>
<g id="_x35_3">
</g>
<g id="_x35_4">
</g>
<g id="_x35_5">
</g>
<g id="_x35_6">
</g>
<g id="_x35_7">
</g>
<g id="_x35_8">
</g>
<g id="_x35_9">
</g>
<g id="_x36_0">
</g>
<g id="_x36_1">
</g>
<g id="_x36_2">
</g>
<g id="_x36_3">
</g>
<g id="_x36_4">
</g>
<g id="_x36_5">
</g>
<g id="_x36_6">
</g>
<g id="_x36_7">
</g>
<g id="_x36_8">
</g>
<g id="_x36_9">
</g>
<g id="_x37_0">
</g>
</svg>
