<?xml version="1.0" encoding="iso-8859-1"?>
<!-- Generator: Adobe Illustrator 16.0.0, SVG Export Plug-In . SVG Version: 6.00 Build 0)  -->
<!DOCTYPE svg PUBLIC "-//W3C//DTD SVG 1.1//EN" "http://www.w3.org/Graphics/SVG/1.1/DTD/svg11.dtd">
<svg version="1.1" xmlns="http://www.w3.org/2000/svg" xmlns:xlink="http://www.w3.org/1999/xlink" x="0px" y="0px" width="512px"
	 height="512px" viewBox="0 0 512 512" style="enable-background:new 0 0 512 512;" xml:space="preserve">
<g id="Guides_For_Artboard">
</g>
<g id="_x30_">
</g>
<g id="_x31_">
	<g>
		<path d="M480.08,169.093h-62.622l17.096-12.16c7.876-5.603,9.719-16.528,4.118-24.404c-5.603-7.876-16.528-9.721-24.404-4.117
			l-59.508,42.326c-4.488,3.192-7.211,8.312-7.351,13.816c-0.14,5.506,2.32,10.756,6.64,14.172l59.508,47.052
			c3.213,2.54,7.042,3.772,10.842,3.772c5.167,0,10.285-2.278,13.739-6.646c5.994-7.581,4.708-18.587-2.874-24.581l-17.997-14.229
			h62.812c9.665,0,17.5-7.835,17.5-17.5S489.745,169.093,480.08,169.093z"/>
		<path d="M163.158,188.696c0.14-5.506-2.32-10.756-6.64-14.172L97.01,127.474c-7.582-5.994-18.586-4.708-24.582,2.873
			c-5.995,7.582-4.708,18.587,2.874,24.582l17.997,14.229H28.851c-9.665,0-17.5,7.835-17.5,17.5s7.835,17.5,17.5,17.5h64.258
			l-17.096,12.16c-7.876,5.602-9.719,16.527-4.118,24.403c3.414,4.8,8.803,7.359,14.276,7.358c3.508,0,7.052-1.053,10.128-3.24
			l59.508-42.327C160.295,199.32,163.019,194.202,163.158,188.696z"/>
		<path d="M130.75,322.931c-0.013,0.515-0.028,1.023-0.037,1.547c-1.007,59.967,13.643,100.255,39.532,126.143
			c14.252,0,42.788,0,73.019,0c0.14-15.019,0.365-47.039-0.084-63.299C242.511,363.198,168.858,335.606,130.75,322.931z"/>
		<path d="M328.871,207.829c-16.827-42.068,2.713-126.143-2.293-126.143c-2.384,0-36.251,0-71.078,0c-0.413,0-0.814,0-1.229,0
			c-34.826,0-68.693,0-71.078,0c-5.006,0,14.534,84.074-2.293,126.143c-18.86,47.151-42.079,55.166-48.498,95.813
			c43.591,8.044,85.567,10.631,122.483,10.404c36.917,0.227,78.893-2.36,122.484-10.404
			C370.95,262.995,347.732,254.98,328.871,207.829z"/>
		<path d="M379.021,322.931c-38.107,12.675-111.761,40.268-112.43,64.391c-0.448,16.26-0.225,48.28-0.084,63.299
			c30.232,0,58.768,0,73.02,0c25.888-25.888,40.538-66.176,39.531-126.143C379.049,323.954,379.033,323.445,379.021,322.931z"/>
	</g>
</g>
<g id="_x32_">
</g>
<g id="_x33_">
</g>
<g id="_x34_">
</g>
<g id="_x35_">
</g>
<g id="_x36_">
</g>
<g id="_x37_">
</g>
<g id="_x38_">
</g>
<g id="_x39_">
</g>
<g id="_x31_0">
</g>
<g id="_x31_1">
</g>
<g id="_x31_2">
</g>
<g id="_x31_3">
</g>
<g id="_x31_4">
</g>
<g id="_x31_5">
</g>
<g id="_x31_6">
</g>
<g id="_x31_7">
</g>
<g id="_x31_8">
</g>
<g id="_x31_9">
</g>
<g id="_x32_0">
</g>
<g id="_x32_1">
</g>
<g id="_x32_2">
</g>
<g id="_x32_3">
</g>
<g id="_x32_4">
</g>
<g id="_x32_5">
</g>
<g id="_x32_6">
</g>
<g id="_x32_7">
</g>
<g id="_x32_8">
</g>
<g id="_x32_9">
</g>
<g id="_x33_0">
</g>
<g id="_x33_1">
</g>
<g id="_x33_2">
</g>
<g id="_x33_3">
</g>
<g id="_x33_4">
</g>
<g id="_x33_5">
</g>
<g id="_x33_6">
</g>
<g id="_x33_7">
</g>
<g id="_x33_8">
</g>
<g id="_x33_9">
</g>
<g id="_x34_0">
</g>
<g id="_x34_1">
</g>
<g id="_x34_2">
</g>
<g id="_x34_3">
</g>
<g id="_x34_4">
</g>
<g id="_x34_5">
</g>
<g id="_x34_6">
</g>
<g id="_x34_7">
</g>
<g id="_x34_8">
</g>
<g id="_x34_9">
</g>
<g id="_x35_0">
</g>
<g id="_x35_1">
</g>
<g id="_x35_2">
</g>
<g id="_x35_3">
</g>
<g id="_x35_4">
</g>
<g id="_x35_5">
</g>
<g id="_x35_6">
</g>
<g id="_x35_7">
</g>
<g id="_x35_8">
</g>
<g id="_x35_9">
</g>
<g id="_x36_0">
</g>
<g id="_x36_1">
</g>
<g id="_x36_2">
</g>
<g id="_x36_3">
</g>
<g id="_x36_4">
</g>
<g id="_x36_5">
</g>
<g id="_x36_6">
</g>
<g id="_x36_7">
</g>
<g id="_x36_8">
</g>
<g id="_x36_9">
</g>
<g id="_x37_0">
</g>
</svg>
