<?xml version="1.0" encoding="iso-8859-1"?>
<!-- Generator: Adobe Illustrator 16.0.0, SVG Export Plug-In . SVG Version: 6.00 Build 0)  -->
<!DOCTYPE svg PUBLIC "-//W3C//DTD SVG 1.1//EN" "http://www.w3.org/Graphics/SVG/1.1/DTD/svg11.dtd">
<svg version="1.1" xmlns="http://www.w3.org/2000/svg" xmlns:xlink="http://www.w3.org/1999/xlink" x="0px" y="0px" width="512px"
	 height="512px" viewBox="0 0 512 512" style="enable-background:new 0 0 512 512;" xml:space="preserve">
<g id="Guides_For_Artboard">
</g>
<g id="_x30_">
</g>
<g id="_x31_">
</g>
<g id="_x32_">
</g>
<g id="_x33_">
</g>
<g id="_x34_">
</g>
<g id="_x35_">
</g>
<g id="_x36_">
</g>
<g id="_x37_">
</g>
<g id="_x38_">
</g>
<g id="_x39_">
</g>
<g id="_x31_0">
</g>
<g id="_x31_1">
</g>
<g id="_x31_2">
</g>
<g id="_x31_3">
</g>
<g id="_x31_4">
</g>
<g id="_x31_5">
</g>
<g id="_x31_6">
</g>
<g id="_x31_7">
</g>
<g id="_x31_8">
</g>
<g id="_x31_9">
</g>
<g id="_x32_0">
</g>
<g id="_x32_1">
</g>
<g id="_x32_2">
</g>
<g id="_x32_3">
</g>
<g id="_x32_4">
</g>
<g id="_x32_5">
</g>
<g id="_x32_6">
</g>
<g id="_x32_7">
</g>
<g id="_x32_8">
</g>
<g id="_x32_9">
</g>
<g id="_x33_0">
</g>
<g id="_x33_1">
</g>
<g id="_x33_2">
</g>
<g id="_x33_3">
</g>
<g id="_x33_4">
</g>
<g id="_x33_5">
</g>
<g id="_x33_6">
</g>
<g id="_x33_7">
</g>
<g id="_x33_8">
</g>
<g id="_x33_9">
</g>
<g id="_x34_0">
</g>
<g id="_x34_1">
</g>
<g id="_x34_2">
</g>
<g id="_x34_3">
</g>
<g id="_x34_4">
</g>
<g id="_x34_5">
</g>
<g id="_x34_6">
</g>
<g id="_x34_7">
</g>
<g id="_x34_8">
</g>
<g id="_x34_9">
</g>
<g id="_x35_0">
	<g>
		<path d="M153.764,340.506c-23.837,0-43.163,19.326-43.163,43.164s19.326,43.162,43.163,43.162
			c23.838,0,43.163-19.324,43.163-43.162S177.602,340.506,153.764,340.506z M153.764,405.252c-11.92,0-21.581-9.664-21.581-21.582
			s9.663-21.582,21.581-21.582c11.919,0,21.581,9.664,21.581,21.582S165.684,405.252,153.764,405.252z"/>
		<path d="M116.59,340.506H19.868c-3.831,0-6.937,3.107-6.937,6.938v21.045c0,3.832,3.105,6.938,6.937,6.938h77.526
			C99.418,361.539,106.428,349.27,116.59,340.506z"/>
		<path d="M379.599,340.506c-23.836,0-43.162,19.326-43.162,43.164s19.326,43.162,43.162,43.162
			c23.839,0,43.163-19.324,43.163-43.162S403.438,340.506,379.599,340.506z M379.599,405.252c-11.919,0-21.581-9.664-21.581-21.582
			s9.661-21.582,21.581-21.582c11.921,0,21.582,9.664,21.582,21.582S391.517,405.252,379.599,405.252z"/>
		<path d="M36.925,319.752H271.4c3.831,0,6.938-3.107,6.938-6.938V105.979c0-11.492-9.318-20.811-20.811-20.811H50.8
			c-11.495,0-20.812,9.318-20.812,20.811v206.836C29.988,316.645,33.095,319.75,36.925,319.752z M88.988,186.988l9.703-28.309
			c0.538-1.57,1.682-2.865,3.174-3.596c1.494-0.729,3.216-0.836,4.788-0.295l25.396,8.738v-26.807c0-3.457,2.804-6.262,6.262-6.262
			h29.653c3.458,0,6.263,2.805,6.263,6.262v26.711l24.257-8.621c3.247-1.156,6.816,0.531,7.987,3.77l10.242,28.307
			c0.578,1.6,0.481,3.367-0.269,4.893c-0.752,1.527-2.091,2.684-3.71,3.201l-26.058,8.348l16.19,21.25
			c2.071,2.719,1.581,6.596-1.102,8.713l-24.263,19.139c-1.111,0.877-2.48,1.346-3.88,1.346c-0.307,0-0.616-0.023-0.925-0.068
			c-1.709-0.256-3.235-1.207-4.221-2.625l-16.181-23.352l-16.406,23.381c-0.989,1.41-2.515,2.35-4.218,2.598
			c-1.707,0.25-3.437-0.213-4.787-1.279l-24.262-19.139c-1.314-1.039-2.159-2.559-2.346-4.223c-0.186-1.664,0.303-3.334,1.357-4.635
			l17.154-21.189l-25.788-8.264c-1.604-0.514-2.932-1.648-3.687-3.154C88.561,190.324,88.443,188.58,88.988,186.988z
			 M73.109,276.766h163.849v6.672H73.109V276.766z"/>
		<path d="M492.131,340.506H475.25V246.24c0-11.068-3.31-21.883-9.503-31.053l-42.219-62.533
			c-7.701-11.408-19.262-19.398-32.296-22.721v-21.32c0-12.285-11.26-22.242-25.148-22.242h-42.75
			c-13.889,0-25.148,9.957-25.148,22.242v31.879c0,0.281,0.014,0.561,0.024,0.84c-0.013,0.252-0.037,0.5-0.037,0.754v198.42H190.94
			c10.159,8.766,17.171,21.033,19.194,34.92h113.093c4.017-27.547,27.729-48.793,56.373-48.793
			c28.639,0,52.351,21.244,56.368,48.793h56.162c3.832,0,6.938-3.105,6.938-6.938v-21.045
			C499.068,343.613,495.963,340.506,492.131,340.506z M429.722,283.438H328.891v-6.672h100.831V283.438z M423.023,227.719H336.6
			c-3.83,0-6.937-3.107-6.937-6.939v-47.971c0-3.832,3.108-6.938,6.937-6.938h52.663c2.257,0,4.374,1.1,5.673,2.943l33.761,47.975
			C431.93,221.385,428.645,227.717,423.023,227.719z"/>
	</g>
</g>
<g id="_x35_1">
</g>
<g id="_x35_2">
</g>
<g id="_x35_3">
</g>
<g id="_x35_4">
</g>
<g id="_x35_5">
</g>
<g id="_x35_6">
</g>
<g id="_x35_7">
</g>
<g id="_x35_8">
</g>
<g id="_x35_9">
</g>
<g id="_x36_0">
</g>
<g id="_x36_1">
</g>
<g id="_x36_2">
</g>
<g id="_x36_3">
</g>
<g id="_x36_4">
</g>
<g id="_x36_5">
</g>
<g id="_x36_6">
</g>
<g id="_x36_7">
</g>
<g id="_x36_8">
</g>
<g id="_x36_9">
</g>
<g id="_x37_0">
</g>
</svg>
