<?xml version="1.0" encoding="iso-8859-1"?>
<!-- Generator: Adobe Illustrator 16.0.0, SVG Export Plug-In . SVG Version: 6.00 Build 0)  -->
<!DOCTYPE svg PUBLIC "-//W3C//DTD SVG 1.1//EN" "http://www.w3.org/Graphics/SVG/1.1/DTD/svg11.dtd">
<svg version="1.1" xmlns="http://www.w3.org/2000/svg" xmlns:xlink="http://www.w3.org/1999/xlink" x="0px" y="0px" width="512px"
	 height="512px" viewBox="0 0 512 512" style="enable-background:new 0 0 512 512;" xml:space="preserve">
<g id="Guides_For_Artboard">
</g>
<g id="_x30_">
</g>
<g id="_x31_">
</g>
<g id="_x32_">
</g>
<g id="_x33_">
</g>
<g id="_x34_">
</g>
<g id="_x35_">
</g>
<g id="_x36_">
</g>
<g id="_x37_">
</g>
<g id="_x38_">
</g>
<g id="_x39_">
</g>
<g id="_x31_0">
</g>
<g id="_x31_1">
</g>
<g id="_x31_2">
</g>
<g id="_x31_3">
</g>
<g id="_x31_4">
</g>
<g id="_x31_5">
</g>
<g id="_x31_6">
</g>
<g id="_x31_7">
</g>
<g id="_x31_8">
</g>
<g id="_x31_9">
</g>
<g id="_x32_0">
</g>
<g id="_x32_1">
</g>
<g id="_x32_2">
</g>
<g id="_x32_3">
</g>
<g id="_x32_4">
</g>
<g id="_x32_5">
</g>
<g id="_x32_6">
</g>
<g id="_x32_7">
</g>
<g id="_x32_8">
</g>
<g id="_x32_9">
</g>
<g id="_x33_0">
</g>
<g id="_x33_1">
</g>
<g id="_x33_2">
</g>
<g id="_x33_3">
</g>
<g id="_x33_4">
</g>
<g id="_x33_5">
</g>
<g id="_x33_6">
</g>
<g id="_x33_7">
</g>
<g id="_x33_8">
</g>
<g id="_x33_9">
</g>
<g id="_x34_0">
</g>
<g id="_x34_1">
</g>
<g id="_x34_2">
</g>
<g id="_x34_3">
</g>
<g id="_x34_4">
</g>
<g id="_x34_5">
</g>
<g id="_x34_6">
</g>
<g id="_x34_7">
</g>
<g id="_x34_8">
</g>
<g id="_x34_9">
	<path d="M367.341,203.607c0-13.215-5.194-24.563-12.549-29.283c7.354-4.723,12.549-16.07,12.549-29.285
		c0-17.434-9.055-31.625-20.184-31.637H331.42c0,0-9.187-25.76-17.501-25.76c-1.142,0-10.044,0-22.443,0v-6.428h22.572
		c0.969,0,1.755-0.785,1.755-1.754V68.49c0-0.969-0.786-1.756-1.755-1.756h-22.572v-8.719c0-1.621-1.314-2.936-2.936-2.936h-22.264
		V34.461h7.095c1.448,0,2.622-1.176,2.622-2.623V18.953c0-1.449-1.174-2.623-2.622-2.623H238.63c-1.449,0-2.623,1.174-2.623,2.623
		v12.885c0,1.447,1.174,2.623,2.623,2.623h7.095V55.08h-22.264c-1.622,0-2.937,1.314-2.937,2.936v8.719h-22.571
		c-0.97,0-1.755,0.787-1.755,1.756v10.971c0,0.969,0.785,1.754,1.755,1.754h23.07v6.428c-12.66,0-21.785,0-22.942,0
		c-8.314,0-17.501,25.76-17.501,25.76h-15.737c-11.129,0.012-20.184,14.203-20.184,31.637c0,13.215,5.194,24.563,12.55,29.285
		c-7.355,4.721-12.55,16.068-12.55,29.283c0,17.102,8.7,31.076,19.523,31.611v138.645c-10.823,0.537-19.523,14.51-19.523,31.611
		c0,13.215,5.194,24.563,12.55,29.285c-7.355,4.721-12.55,16.068-12.55,29.283c0,17.439,9.047,31.627,20.167,31.627H256h91.174
		c11.12,0,20.167-14.188,20.167-31.627c0-13.215-5.194-24.563-12.549-29.283c7.354-4.723,12.549-16.07,12.549-29.285
		c0-17.102-8.7-31.074-19.522-31.611V235.219C358.641,234.684,367.341,220.709,367.341,203.607z"/>
</g>
<g id="_x35_0">
</g>
<g id="_x35_1">
</g>
<g id="_x35_2">
</g>
<g id="_x35_3">
</g>
<g id="_x35_4">
</g>
<g id="_x35_5">
</g>
<g id="_x35_6">
</g>
<g id="_x35_7">
</g>
<g id="_x35_8">
</g>
<g id="_x35_9">
</g>
<g id="_x36_0">
</g>
<g id="_x36_1">
</g>
<g id="_x36_2">
</g>
<g id="_x36_3">
</g>
<g id="_x36_4">
</g>
<g id="_x36_5">
</g>
<g id="_x36_6">
</g>
<g id="_x36_7">
</g>
<g id="_x36_8">
</g>
<g id="_x36_9">
</g>
<g id="_x37_0">
</g>
</svg>
