%!PS-Adobe-3.0 EPSF-3.0
%%Creator: cairo 1.10.2 (http://cairographics.org)
%%CreationDate: Thu Jul 31 07:30:14 2014
%%Pages: 1
%%BoundingBox: 0 -1 387 314
%%DocumentData: Clean7Bit
%%LanguageLevel: 2
%%EndComments
%%BeginProlog
/cairo_eps_state save def
/dict_count countdictstack def
/op_count count 1 sub def
userdict begin
/q { gsave } bind def
/Q { grestore } bind def
/cm { 6 array astore concat } bind def
/w { setlinewidth } bind def
/J { setlinecap } bind def
/j { setlinejoin } bind def
/M { setmiterlimit } bind def
/d { setdash } bind def
/m { moveto } bind def
/l { lineto } bind def
/c { curveto } bind def
/h { closepath } bind def
/re { exch dup neg 3 1 roll 5 3 roll moveto 0 rlineto
      0 exch rlineto 0 rlineto closepath } bind def
/S { stroke } bind def
/f { fill } bind def
/f* { eofill } bind def
/n { newpath } bind def
/W { clip } bind def
/W* { eoclip } bind def
/BT { } bind def
/ET { } bind def
/pdfmark where { pop globaldict /?pdfmark /exec load put }
    { globaldict begin /?pdfmark /pop load def /pdfmark
    /cleartomark load def end } ifelse
/BDC { mark 3 1 roll /BDC pdfmark } bind def
/EMC { mark /EMC pdfmark } bind def
/cairo_store_point { /cairo_point_y exch def /cairo_point_x exch def } def
/Tj { show currentpoint cairo_store_point } bind def
/TJ {
  {
    dup
    type /stringtype eq
    { show } { -0.001 mul 0 cairo_font_matrix dtransform rmoveto } ifelse
  } forall
  currentpoint cairo_store_point
} bind def
/cairo_selectfont { cairo_font_matrix aload pop pop pop 0 0 6 array astore
    cairo_font exch selectfont cairo_point_x cairo_point_y moveto } bind def
/Tf { pop /cairo_font exch def /cairo_font_matrix where
      { pop cairo_selectfont } if } bind def
/Td { matrix translate cairo_font_matrix matrix concatmatrix dup
      /cairo_font_matrix exch def dup 4 get exch 5 get cairo_store_point
      /cairo_font where { pop cairo_selectfont } if } bind def
/Tm { 2 copy 8 2 roll 6 array astore /cairo_font_matrix exch def
      cairo_store_point /cairo_font where { pop cairo_selectfont } if } bind def
/g { setgray } bind def
/rg { setrgbcolor } bind def
/d1 { setcachedevice } bind def
%%EndProlog
%%Page: 1 1
%%BeginPageSetup
%%PageBoundingBox: 0 -1 387 314
%%EndPageSetup
q 0 -1 387 315 rectclip q
0 313.767 387 -314 re W n
0 g
360.711 56.197 m 26 56.197 l 23.641 56.197 21.73 54.283 21.73 51.927 c 
21.73 26.697 l 21.73 11.978 33.707 0.002 48.43 0.002 c 338.285 0.002 l 
353.004 0.002 364.98 11.978 364.98 26.697 c 364.98 51.927 l 364.98 
54.283 363.07 56.197 360.711 56.197 c h
360.711 56.197 m f
361.371 125.974 m 25.34 125.974 l 11.441 125.974 0.137 113.244 0.137 
97.595 c 0.137 81.947 11.441 69.216 25.34 69.216 c 361.375 69.216 l 
375.27 69.216 386.578 81.947 386.578 97.595 c 386.578 113.244 375.27 
125.974 361.371 125.974 c h
361.371 125.974 m f
25.82 167.298 m 360.895 167.298 l 363.25 167.298 365.164 169.209 
365.164 171.568 c 365.164 171.693 365.156 171.818 365.148 171.939 c 
365.051 216.713 347.504 253.603 314.387 278.634 c 283.98 301.619 
242.125 313.767 193.348 313.767 c 144.57 313.767 102.719 301.619 72.312 
278.634 c 39.102 253.533 21.547 216.509 21.547 171.568 c 21.547 169.209 
23.461 167.298 25.82 167.298 c h
25.82 167.298 m f
9.125 134.205 m 377.59 134.205 l 382.629 134.205 386.711 138.291 
386.711 143.33 c 386.711 148.365 382.629 152.451 377.59 152.451 c 9.125 
152.451 l 4.086 152.451 0 148.365 0 143.33 c 0 138.291 4.086 134.205 
9.125 134.205 c h
9.125 134.205 m f
Q Q
showpage
%%Trailer
count op_count sub {pop} repeat
countdictstack dict_count sub {end} repeat
cairo_eps_state restore
%%EOF
