%!PS-Adobe-3.0 EPSF-3.0
%%Creator: cairo 1.10.2 (http://cairographics.org)
%%CreationDate: Thu Jul 31 07:30:09 2014
%%Pages: 1
%%BoundingBox: 0 -1 313 388
%%DocumentData: Clean7Bit
%%LanguageLevel: 2
%%EndComments
%%BeginProlog
/cairo_eps_state save def
/dict_count countdictstack def
/op_count count 1 sub def
userdict begin
/q { gsave } bind def
/Q { grestore } bind def
/cm { 6 array astore concat } bind def
/w { setlinewidth } bind def
/J { setlinecap } bind def
/j { setlinejoin } bind def
/M { setmiterlimit } bind def
/d { setdash } bind def
/m { moveto } bind def
/l { lineto } bind def
/c { curveto } bind def
/h { closepath } bind def
/re { exch dup neg 3 1 roll 5 3 roll moveto 0 rlineto
      0 exch rlineto 0 rlineto closepath } bind def
/S { stroke } bind def
/f { fill } bind def
/f* { eofill } bind def
/n { newpath } bind def
/W { clip } bind def
/W* { eoclip } bind def
/BT { } bind def
/ET { } bind def
/pdfmark where { pop globaldict /?pdfmark /exec load put }
    { globaldict begin /?pdfmark /pop load def /pdfmark
    /cleartomark load def end } ifelse
/BDC { mark 3 1 roll /BDC pdfmark } bind def
/EMC { mark /EMC pdfmark } bind def
/cairo_store_point { /cairo_point_y exch def /cairo_point_x exch def } def
/Tj { show currentpoint cairo_store_point } bind def
/TJ {
  {
    dup
    type /stringtype eq
    { show } { -0.001 mul 0 cairo_font_matrix dtransform rmoveto } ifelse
  } forall
  currentpoint cairo_store_point
} bind def
/cairo_selectfont { cairo_font_matrix aload pop pop pop 0 0 6 array astore
    cairo_font exch selectfont cairo_point_x cairo_point_y moveto } bind def
/Tf { pop /cairo_font exch def /cairo_font_matrix where
      { pop cairo_selectfont } if } bind def
/Td { matrix translate cairo_font_matrix matrix concatmatrix dup
      /cairo_font_matrix exch def dup 4 get exch 5 get cairo_store_point
      /cairo_font where { pop cairo_selectfont } if } bind def
/Tm { 2 copy 8 2 roll 6 array astore /cairo_font_matrix exch def
      cairo_store_point /cairo_font where { pop cairo_selectfont } if } bind def
/g { setgray } bind def
/rg { setrgbcolor } bind def
/d1 { setcachedevice } bind def
%%EndProlog
%%Page: 1 1
%%BeginPageSetup
%%PageBoundingBox: 0 -1 313 388
%%EndPageSetup
q 0 -1 313 389 rectclip q
0 387.222 313 -388 re W n
0 g
197.23 219.508 m 195.934 219.64 194.57 219.719 193.168 219.719 c 
178.992 219.719 164.875 213.07 156.086 202.508 c 147.293 213.07 133.18 
219.719 119.016 219.719 c 117.609 219.719 116.254 219.64 114.93 219.508 
c 98.973 217.793 87.742 212.402 80.602 203.027 c 73.52 193.734 71.211 
181.136 73.742 165.586 c 77.445 143.019 106.664 115.547 130.137 93.465 
c 130.672 92.961 l 137.211 86.801 142.859 81.488 146.535 77.527 c 
147.031 76.972 151.516 72.066 156.422 72.066 c 161.359 72.066 165.742 
77.047 166.137 77.523 c 170.047 81.761 176.391 87.769 182.656 93.695 c 
205.867 115.715 234.758 143.117 238.418 165.594 c 240.965 181.133 
238.672 193.726 231.582 203.023 c 224.445 212.402 213.215 217.793 
197.23 219.508 c h
197.23 219.508 m f
269.914 262.758 m 287.227 281.023 l 291.789 285.836 291.586 293.437 
286.777 297.996 c 272.254 311.765 l 267.438 316.328 259.84 316.125 
255.277 311.312 c 235.473 290.422 l 219.859 299.683 202.5 306.301 
184.016 309.652 c 184.016 335.191 l 207.613 335.191 l 214.246 335.191 
219.621 340.566 219.621 347.199 c 219.621 375.215 l 219.621 381.847 
214.246 387.222 207.613 387.222 c 104.555 387.222 l 97.922 387.222 
92.547 381.847 92.547 375.215 c 92.547 347.199 l 92.547 340.566 97.922 
335.191 104.555 335.191 c 127.812 335.191 l 127.812 309.59 l 109.07 
306.148 91.488 299.355 75.715 289.84 c 75.594 289.965 75.484 290.094 
75.359 290.215 c 52.848 311.554 l 48.035 316.117 40.434 315.914 35.871 
311.101 c 22.105 296.578 l 17.543 291.765 17.746 284.164 22.559 279.601 
c 41.352 261.789 l 15.699 233.965 0 196.824 0 156.086 c 0 70.019 70.02 
-0 156.082 -0 c 242.148 -0 312.168 70.019 312.168 156.086 c 312.168 
197.301 296.102 234.832 269.914 262.758 c h
156.086 28 m 85.461 28 28 85.457 28 156.086 c 28 226.711 85.457 284.168 
156.086 284.168 c 226.711 284.168 284.168 226.711 284.168 156.086 c 
284.168 85.461 226.707 28 156.086 28 c h
156.086 28 m f
Q Q
showpage
%%Trailer
count op_count sub {pop} repeat
countdictstack dict_count sub {end} repeat
cairo_eps_state restore
%%EOF
