%!PS-Adobe-3.0 EPSF-3.0
%%Creator: cairo 1.10.2 (http://cairographics.org)
%%CreationDate: Thu Jul 31 07:30:14 2014
%%Pages: 1
%%BoundingBox: 0 -1 375 389
%%DocumentData: Clean7Bit
%%LanguageLevel: 2
%%EndComments
%%BeginProlog
/cairo_eps_state save def
/dict_count countdictstack def
/op_count count 1 sub def
userdict begin
/q { gsave } bind def
/Q { grestore } bind def
/cm { 6 array astore concat } bind def
/w { setlinewidth } bind def
/J { setlinecap } bind def
/j { setlinejoin } bind def
/M { setmiterlimit } bind def
/d { setdash } bind def
/m { moveto } bind def
/l { lineto } bind def
/c { curveto } bind def
/h { closepath } bind def
/re { exch dup neg 3 1 roll 5 3 roll moveto 0 rlineto
      0 exch rlineto 0 rlineto closepath } bind def
/S { stroke } bind def
/f { fill } bind def
/f* { eofill } bind def
/n { newpath } bind def
/W { clip } bind def
/W* { eoclip } bind def
/BT { } bind def
/ET { } bind def
/pdfmark where { pop globaldict /?pdfmark /exec load put }
    { globaldict begin /?pdfmark /pop load def /pdfmark
    /cleartomark load def end } ifelse
/BDC { mark 3 1 roll /BDC pdfmark } bind def
/EMC { mark /EMC pdfmark } bind def
/cairo_store_point { /cairo_point_y exch def /cairo_point_x exch def } def
/Tj { show currentpoint cairo_store_point } bind def
/TJ {
  {
    dup
    type /stringtype eq
    { show } { -0.001 mul 0 cairo_font_matrix dtransform rmoveto } ifelse
  } forall
  currentpoint cairo_store_point
} bind def
/cairo_selectfont { cairo_font_matrix aload pop pop pop 0 0 6 array astore
    cairo_font exch selectfont cairo_point_x cairo_point_y moveto } bind def
/Tf { pop /cairo_font exch def /cairo_font_matrix where
      { pop cairo_selectfont } if } bind def
/Td { matrix translate cairo_font_matrix matrix concatmatrix dup
      /cairo_font_matrix exch def dup 4 get exch 5 get cairo_store_point
      /cairo_font where { pop cairo_selectfont } if } bind def
/Tm { 2 copy 8 2 roll 6 array astore /cairo_font_matrix exch def
      cairo_store_point /cairo_font where { pop cairo_selectfont } if } bind def
/g { setgray } bind def
/rg { setrgbcolor } bind def
/d1 { setcachedevice } bind def
%%EndProlog
%%Page: 1 1
%%BeginPageSetup
%%PageBoundingBox: 0 -1 375 389
%%EndPageSetup
q 0 -1 375 390 rectclip q
0 388.025 375 -389 re W n
0 g
353.656 132.361 m 340.148 146.884 321.844 155.724 302.121 157.255 c 
301.613 157.294 l 78.754 157.513 l 35.328 157.513 0 122.181 0 78.755 c 
0 35.329 35.328 0.001 78.754 0.001 c 78.77 0.001 l 301.102 0.22 l 
302.121 0.259 l 321.844 1.787 340.145 10.626 353.656 25.15 c 367.246 
39.755 374.727 58.794 374.727 78.755 c 374.727 98.716 367.246 117.751 
353.656 132.361 c h
189.637 26.833 m 78.746 26.724 l 50.062 26.732 26.727 50.068 26.727 
78.755 c 26.727 107.443 50.066 130.783 78.742 130.783 c 189.637 130.677 
l h
189.637 26.833 m f
34.836 182.669 m 48.25 172.876 64.754 167.482 81.297 167.478 c 81.301 
167.478 l 86.969 167.478 92.66 168.099 98.223 169.326 c 98.719 169.435 
l 312.055 233.884 l 353.609 246.482 377.172 290.54 364.574 332.099 c 
359.57 348.599 349.59 362.677 335.699 372.822 c 322.277 382.626 305.773 
388.025 289.227 388.025 c 281.504 388.025 273.809 386.88 266.344 
384.619 c 53.637 319.904 l 52.672 319.568 l 34.238 312.384 19.289 
298.615 10.574 280.798 c 1.809 262.876 0.172 242.486 5.961 223.384 c 
10.965 206.888 20.945 192.81 34.836 182.669 c h
274.109 359.044 m 279.047 360.54 284.133 361.298 289.227 361.298 c 
311.934 361.298 332.398 346.103 338.996 324.349 c 347.32 296.892 
331.754 267.783 304.312 259.466 c 198.156 227.396 l 168.027 326.767 l h
274.109 359.044 m f
Q Q
showpage
%%Trailer
count op_count sub {pop} repeat
countdictstack dict_count sub {end} repeat
cairo_eps_state restore
%%EOF
