%!PS-Adobe-3.0 EPSF-3.0
%%Creator: cairo 1.10.2 (http://cairographics.org)
%%CreationDate: Thu Jul 31 07:30:08 2014
%%Pages: 1
%%BoundingBox: 0 -1 353 388
%%DocumentData: Clean7Bit
%%LanguageLevel: 2
%%EndComments
%%BeginProlog
/cairo_eps_state save def
/dict_count countdictstack def
/op_count count 1 sub def
userdict begin
/q { gsave } bind def
/Q { grestore } bind def
/cm { 6 array astore concat } bind def
/w { setlinewidth } bind def
/J { setlinecap } bind def
/j { setlinejoin } bind def
/M { setmiterlimit } bind def
/d { setdash } bind def
/m { moveto } bind def
/l { lineto } bind def
/c { curveto } bind def
/h { closepath } bind def
/re { exch dup neg 3 1 roll 5 3 roll moveto 0 rlineto
      0 exch rlineto 0 rlineto closepath } bind def
/S { stroke } bind def
/f { fill } bind def
/f* { eofill } bind def
/n { newpath } bind def
/W { clip } bind def
/W* { eoclip } bind def
/BT { } bind def
/ET { } bind def
/pdfmark where { pop globaldict /?pdfmark /exec load put }
    { globaldict begin /?pdfmark /pop load def /pdfmark
    /cleartomark load def end } ifelse
/BDC { mark 3 1 roll /BDC pdfmark } bind def
/EMC { mark /EMC pdfmark } bind def
/cairo_store_point { /cairo_point_y exch def /cairo_point_x exch def } def
/Tj { show currentpoint cairo_store_point } bind def
/TJ {
  {
    dup
    type /stringtype eq
    { show } { -0.001 mul 0 cairo_font_matrix dtransform rmoveto } ifelse
  } forall
  currentpoint cairo_store_point
} bind def
/cairo_selectfont { cairo_font_matrix aload pop pop pop 0 0 6 array astore
    cairo_font exch selectfont cairo_point_x cairo_point_y moveto } bind def
/Tf { pop /cairo_font exch def /cairo_font_matrix where
      { pop cairo_selectfont } if } bind def
/Td { matrix translate cairo_font_matrix matrix concatmatrix dup
      /cairo_font_matrix exch def dup 4 get exch 5 get cairo_store_point
      /cairo_font where { pop cairo_selectfont } if } bind def
/Tm { 2 copy 8 2 roll 6 array astore /cairo_font_matrix exch def
      cairo_store_point /cairo_font where { pop cairo_selectfont } if } bind def
/g { setgray } bind def
/rg { setrgbcolor } bind def
/d1 { setcachedevice } bind def
%%EndProlog
%%Page: 1 1
%%BeginPageSetup
%%PageBoundingBox: 0 -1 353 388
%%EndPageSetup
q 0 -1 353 389 rectclip q
0 387.869 353 -388 re W n
0 g
314.223 314.224 m 274.898 314.224 l 262.363 356.744 222.973 387.869 
176.449 387.869 c 129.922 387.869 90.535 356.744 77.996 314.224 c 
38.676 314.224 l 17.316 314.224 0 296.908 0 275.548 c 19.336 38.673 l 
19.336 17.314 36.652 0.002 58.012 0.002 c 294.887 0.002 l 316.242 0.002 
333.559 17.318 333.559 38.673 c 352.898 275.548 l 352.898 296.908 
335.578 314.224 314.223 314.224 c h
176.449 359.869 m 217.598 359.869 251.074 326.392 251.074 285.244 c 
251.074 244.095 217.598 210.619 176.449 210.619 c 135.301 210.619 
101.824 244.095 101.824 285.244 c 101.824 326.392 135.301 359.869 
176.449 359.869 c h
176.449 359.869 m f
175.812 267.123 m 179.488 267.123 182.855 268.349 185.613 270.361 c 
185.629 270.334 l 185.629 270.334 185.777 270.482 185.84 270.548 c 
187.367 271.713 188.707 273.099 189.766 274.709 c 200.234 285.888 
226.855 314.998 223.68 318.756 c 220.246 322.81 180.258 304.24 169.922 
299.345 c 169.188 299.064 168.5 298.72 167.82 298.341 c 167.676 298.275 
167.465 298.173 167.465 298.173 c 167.477 298.158 l 162.512 295.275 
159.137 289.959 159.137 283.798 c 159.137 274.588 166.602 267.123 
175.812 267.123 c h
175.812 267.123 m f
Q Q
showpage
%%Trailer
count op_count sub {pop} repeat
countdictstack dict_count sub {end} repeat
cairo_eps_state restore
%%EOF
