<?xml version="1.0" encoding="iso-8859-1"?>
<!-- Generator: Adobe Illustrator 16.0.0, SVG Export Plug-In . SVG Version: 6.00 Build 0)  -->
<!DOCTYPE svg PUBLIC "-//W3C//DTD SVG 1.1//EN" "http://www.w3.org/Graphics/SVG/1.1/DTD/svg11.dtd">
<svg version="1.1" xmlns="http://www.w3.org/2000/svg" xmlns:xlink="http://www.w3.org/1999/xlink" x="0px" y="0px" width="512px"
	 height="512px" viewBox="0 0 512 512" style="enable-background:new 0 0 512 512;" xml:space="preserve">
<g id="Guides_For_Artboard">
</g>
<g id="_x30_">
</g>
<g id="_x31_">
</g>
<g id="_x32_">
</g>
<g id="_x33_">
</g>
<g id="_x34_">
</g>
<g id="_x35_">
</g>
<g id="_x36_">
</g>
<g id="_x37_">
</g>
<g id="_x38_">
</g>
<g id="_x39_">
</g>
<g id="_x31_0">
</g>
<g id="_x31_1">
</g>
<g id="_x31_2">
</g>
<g id="_x31_3">
</g>
<g id="_x31_4">
</g>
<g id="_x31_5">
</g>
<g id="_x31_6">
</g>
<g id="_x31_7">
</g>
<g id="_x31_8">
</g>
<g id="_x31_9">
	<path d="M408.131,221.721c-9.814,0-19.641,1.697-29.208,5.044l-1.996,0.698l-32.148-58.406v-25.365h38.517
		c7.402,0,13.424-6.022,13.424-13.425s-6.021-13.425-13.424-13.425h-51.039c-7.402,0-13.424,6.022-13.424,13.425
		c0,1.084,0.148,2.211,0.44,3.349l0.079,0.306v25.69H202.24l-9.644-21.476h27.897c7.009,0,12.71-5.703,12.71-12.714
		c0-7.01-5.701-12.713-12.71-12.713h-95.083c-7.011,0-12.714,5.703-12.714,12.713c0,7.011,5.703,12.714,12.714,12.714h39.322
		l8.49,19.248l-38.149,70.096l-2.007-0.703c-9.557-3.351-19.38-5.049-29.198-5.049c-48.953,0-88.78,39.828-88.78,88.784
		c0,48.953,39.827,88.779,88.78,88.779c43.436,0,80.206-31.113,87.434-73.981l0.351-2.085h37.787l0.724,0.687
		c5.776,5.481,13.335,8.5,21.284,8.5c17.056,0,30.932-13.876,30.932-30.932c0-2.946-0.422-5.88-1.255-8.719l-0.293-0.998
		l51.233-93.078l22.596,41.054l-1.652,1.313c-21.39,16.999-33.657,42.316-33.657,69.461c0,48.953,39.826,88.779,88.779,88.779
		s88.78-39.826,88.78-88.779C496.911,261.553,457.084,221.721,408.131,221.721z M144.928,262.262l2.349,2.218
		c8.702,8.214,14.881,18.648,17.867,30.177l0.811,3.127h-40.578L144.928,262.262z M165.144,326.353
		c-7.254,27.966-32.451,47.497-61.274,47.497c-34.934,0-63.354-28.42-63.354-63.354c0-34.933,28.421-63.353,63.354-63.353
		c5.101,0,10.373,0.686,15.672,2.039l3.128,0.8L92.74,304.385c-0.076,0.199-0.158,0.396-0.259,0.589
		c-0.208,0.431-0.363,0.803-0.488,1.165c-0.175,0.462-0.294,0.838-0.382,1.197c-0.099,0.373-0.169,0.73-0.239,1.194
		c-0.085,0.503-0.126,0.923-0.131,1.292l-0.005,0.132c-0.012,0.169-0.034,0.339-0.06,0.51l-0.007,0.055l0.005,0.041
		c0.02,0.144,0.036,0.286,0.045,0.426c0.028,0.504,0.081,0.982,0.145,1.453c0.054,0.344,0.116,0.73,0.214,1.115
		c0.094,0.378,0.208,0.751,0.354,1.153c0.149,0.45,0.293,0.81,0.464,1.174c0.156,0.347,0.338,0.66,0.549,1.024l0.051,0.088
		c0.215,0.377,0.407,0.674,0.611,0.945c0.229,0.313,0.479,0.619,0.814,0.994c0.263,0.285,0.534,0.586,0.834,0.86
		c0.31,0.28,0.638,0.541,0.97,0.803c0.319,0.239,0.675,0.502,1.029,0.706l0.147,0.092c0.101,0.067,0.201,0.142,0.302,0.218
		l0.092,0.068c0.202,0.064,0.4,0.148,0.598,0.255c0.341,0.165,0.741,0.334,1.105,0.458c0.461,0.171,0.852,0.294,1.258,0.399
		c0.317,0.084,0.647,0.151,1.119,0.227c0.499,0.083,0.962,0.131,1.427,0.148c0.136-0.008,0.346,0.021,0.565,0.05l62.087,0.008
		L165.144,326.353z M227.63,281.746c-3.338,4.024-5.611,8.865-6.574,13.998l-0.383,2.039h-29.02l-0.351-2.085
		c-3.637-21.568-15.111-40.981-32.312-54.661l-1.651-1.313l29.183-53.023l42.102,93.848L227.63,281.746z M262.419,272.482
		l-1.941-0.592c-2.245-0.685-4.593-1.11-6.979-1.267l-1.502-0.098l-38.342-85.496h96.908L262.419,272.482z M408.131,373.85
		c-34.933,0-63.353-28.42-63.353-63.354c0-17.544,7.082-33.887,19.942-46.018l2.349-2.216l29.927,54.367
		c2.227,4.06,6.499,6.58,11.15,6.58c2.17,0,4.23-0.53,6.123-1.575c2.976-1.635,5.132-4.331,6.076-7.593
		c0.944-3.264,0.563-6.705-1.077-9.688l-29.925-54.371l3.126-0.8c5.291-1.354,10.564-2.04,15.677-2.04
		c34.934,0,63.354,28.42,63.354,63.353C471.484,345.43,443.058,373.85,408.131,373.85z"/>
</g>
<g id="_x32_0">
</g>
<g id="_x32_1">
</g>
<g id="_x32_2">
</g>
<g id="_x32_3">
</g>
<g id="_x32_4">
</g>
<g id="_x32_5">
</g>
<g id="_x32_6">
</g>
<g id="_x32_7">
</g>
<g id="_x32_8">
</g>
<g id="_x32_9">
</g>
<g id="_x33_0">
</g>
<g id="_x33_1">
</g>
<g id="_x33_2">
</g>
<g id="_x33_3">
</g>
<g id="_x33_4">
</g>
<g id="_x33_5">
</g>
<g id="_x33_6">
</g>
<g id="_x33_7">
</g>
<g id="_x33_8">
</g>
<g id="_x33_9">
</g>
<g id="_x34_0">
</g>
<g id="_x34_1">
</g>
<g id="_x34_2">
</g>
<g id="_x34_3">
</g>
<g id="_x34_4">
</g>
<g id="_x34_5">
</g>
<g id="_x34_6">
</g>
<g id="_x34_7">
</g>
<g id="_x34_8">
</g>
<g id="_x34_9">
</g>
<g id="_x35_0">
</g>
<g id="_x35_1">
</g>
<g id="_x35_2">
</g>
<g id="_x35_3">
</g>
<g id="_x35_4">
</g>
<g id="_x35_5">
</g>
<g id="_x35_6">
</g>
<g id="_x35_7">
</g>
<g id="_x35_8">
</g>
<g id="_x35_9">
</g>
<g id="_x36_0">
</g>
<g id="_x36_1">
</g>
<g id="_x36_2">
</g>
<g id="_x36_3">
</g>
<g id="_x36_4">
</g>
<g id="_x36_5">
</g>
<g id="_x36_6">
</g>
<g id="_x36_7">
</g>
<g id="_x36_8">
</g>
<g id="_x36_9">
</g>
<g id="_x37_0">
</g>
</svg>
