<?xml version="1.0" encoding="iso-8859-1"?>
<!-- Generator: Adobe Illustrator 16.0.0, SVG Export Plug-In . SVG Version: 6.00 Build 0)  -->
<!DOCTYPE svg PUBLIC "-//W3C//DTD SVG 1.1//EN" "http://www.w3.org/Graphics/SVG/1.1/DTD/svg11.dtd">
<svg version="1.1" xmlns="http://www.w3.org/2000/svg" xmlns:xlink="http://www.w3.org/1999/xlink" x="0px" y="0px" width="512px"
	 height="512px" viewBox="0 0 512 512" style="enable-background:new 0 0 512 512;" xml:space="preserve">
<g id="Guides_For_Artboard">
</g>
<g id="_x30_">
</g>
<g id="_x31_">
</g>
<g id="_x32_">
</g>
<g id="_x33_">
</g>
<g id="_x34_">
</g>
<g id="_x35_">
</g>
<g id="_x36_">
</g>
<g id="_x37_">
</g>
<g id="_x38_">
</g>
<g id="_x39_">
</g>
<g id="_x31_0">
</g>
<g id="_x31_1">
</g>
<g id="_x31_2">
</g>
<g id="_x31_3">
</g>
<g id="_x31_4">
</g>
<g id="_x31_5">
</g>
<g id="_x31_6">
</g>
<g id="_x31_7">
</g>
<g id="_x31_8">
</g>
<g id="_x31_9">
</g>
<g id="_x32_0">
	<g>
		<path d="M394.275,280.485H199.207c-14.391,0-26.053,11.665-26.053,26.052v79.711c0,14.391,11.662,26.054,26.053,26.054h195.068
			c14.393,0,26.059-11.664,26.059-26.054v-79.711C420.334,292.15,408.668,280.485,394.275,280.485z"/>
		<path d="M478.15,356.278c-0.007-46.369-0.014-94.394-0.014-105.903c0-28.915-9.639-38.235-25.365-51.047l-0.33-0.269
			c-17.614-14.353-32.146-25.729-45.734-35.803c-0.918-0.68-3.051-2.479-3.051-4.493v-36.649h13.92V87.21h-0.033
			c-0.078-26.622-21.678-48.182-48.319-48.182H224.238c-26.688,0-48.327,21.637-48.327,48.328c0.008,0,0.017,0,0.024,0v34.758
			h13.895v36.524c0,2.015-2.132,3.813-3.049,4.493c-13.588,10.074-28.12,21.45-45.734,35.802l-0.33,0.269
			c-15.727,12.813-25.365,22.133-25.365,51.047c0,11.509-0.007,59.534-0.015,105.902c-0.006,43.277-0.013,85.111-0.013,94.467
			c0,27.409,20.856,55.76,55.76,55.76h126.748c1.126,0.001,112.7,0.125,124.572,0.125c34.901,0,55.758-28.351,55.758-55.76
			C478.162,441.389,478.156,399.555,478.15,356.278z M422.404,471.505c-11.854,0-123.408-0.124-124.553-0.125H171.084
			c-15.231,0-20.76-12.415-20.76-20.76c0-9.355,0.007-51.187,0.013-94.462c0.008-46.371,0.015-94.398,0.015-105.908
			c0-13.752,0.469-14.133,12.472-23.913l0.333-0.271c17.19-14.007,31.32-25.071,44.469-34.818
			c10.934-8.106,17.205-19.992,17.205-32.61v-36.524h143.826v36.649c0,12.618,6.271,24.503,17.207,32.609
			c13.148,9.748,27.278,20.812,44.469,34.819l0.333,0.271c12.003,9.779,12.472,10.161,12.472,23.913
			c0,11.509,0.007,59.537,0.014,105.908c0.006,43.275,0.012,85.106,0.012,94.462C443.162,459.09,437.634,471.505,422.404,471.505z"
			/>
	</g>
</g>
<g id="_x32_1">
</g>
<g id="_x32_2">
</g>
<g id="_x32_3">
</g>
<g id="_x32_4">
</g>
<g id="_x32_5">
</g>
<g id="_x32_6">
</g>
<g id="_x32_7">
</g>
<g id="_x32_8">
</g>
<g id="_x32_9">
</g>
<g id="_x33_0">
</g>
<g id="_x33_1">
</g>
<g id="_x33_2">
</g>
<g id="_x33_3">
</g>
<g id="_x33_4">
</g>
<g id="_x33_5">
</g>
<g id="_x33_6">
</g>
<g id="_x33_7">
</g>
<g id="_x33_8">
</g>
<g id="_x33_9">
</g>
<g id="_x34_0">
</g>
<g id="_x34_1">
</g>
<g id="_x34_2">
</g>
<g id="_x34_3">
</g>
<g id="_x34_4">
</g>
<g id="_x34_5">
</g>
<g id="_x34_6">
</g>
<g id="_x34_7">
</g>
<g id="_x34_8">
</g>
<g id="_x34_9">
</g>
<g id="_x35_0">
</g>
<g id="_x35_1">
</g>
<g id="_x35_2">
</g>
<g id="_x35_3">
</g>
<g id="_x35_4">
</g>
<g id="_x35_5">
</g>
<g id="_x35_6">
</g>
<g id="_x35_7">
</g>
<g id="_x35_8">
</g>
<g id="_x35_9">
</g>
<g id="_x36_0">
</g>
<g id="_x36_1">
</g>
<g id="_x36_2">
</g>
<g id="_x36_3">
</g>
<g id="_x36_4">
</g>
<g id="_x36_5">
</g>
<g id="_x36_6">
</g>
<g id="_x36_7">
</g>
<g id="_x36_8">
</g>
<g id="_x36_9">
</g>
<g id="_x37_0">
</g>
</svg>
