<?xml version="1.0" encoding="iso-8859-1"?>
<!-- Generator: Adobe Illustrator 16.0.0, SVG Export Plug-In . SVG Version: 6.00 Build 0)  -->
<!DOCTYPE svg PUBLIC "-//W3C//DTD SVG 1.1//EN" "http://www.w3.org/Graphics/SVG/1.1/DTD/svg11.dtd">
<svg version="1.1" xmlns="http://www.w3.org/2000/svg" xmlns:xlink="http://www.w3.org/1999/xlink" x="0px" y="0px" width="512px"
	 height="512px" viewBox="0 0 512 512" style="enable-background:new 0 0 512 512;" xml:space="preserve">
<g id="Guides_For_Artboard">
</g>
<g id="_x30_">
</g>
<g id="_x31_">
</g>
<g id="_x32_">
</g>
<g id="_x33_">
</g>
<g id="_x34_">
</g>
<g id="_x35_">
</g>
<g id="_x36_">
</g>
<g id="_x37_">
</g>
<g id="_x38_">
</g>
<g id="_x39_">
</g>
<g id="_x31_0">
</g>
<g id="_x31_1">
</g>
<g id="_x31_2">
</g>
<g id="_x31_3">
</g>
<g id="_x31_4">
</g>
<g id="_x31_5">
</g>
<g id="_x31_6">
</g>
<g id="_x31_7">
</g>
<g id="_x31_8">
</g>
<g id="_x31_9">
</g>
<g id="_x32_0">
</g>
<g id="_x32_1">
</g>
<g id="_x32_2">
</g>
<g id="_x32_3">
</g>
<g id="_x32_4">
</g>
<g id="_x32_5">
</g>
<g id="_x32_6">
</g>
<g id="_x32_7">
</g>
<g id="_x32_8">
</g>
<g id="_x32_9">
</g>
<g id="_x33_0">
</g>
<g id="_x33_1">
</g>
<g id="_x33_2">
</g>
<g id="_x33_3">
</g>
<g id="_x33_4">
</g>
<g id="_x33_5">
</g>
<g id="_x33_6">
</g>
<g id="_x33_7">
</g>
<g id="_x33_8">
</g>
<g id="_x33_9">
</g>
<g id="_x34_0">
	<path d="M491.581,104.292l-73.519-80.738c-3.896-4.277-9.488-6.582-15.232-6.313H256H109.165
		c-5.752-0.267-11.334,2.035-15.228,6.313l-73.519,80.738c-5.827,6.4-6.709,15.887-2.161,23.251l119.841,194.026
		c-5.69,14.403-8.817,30.1-8.817,46.525c0,69.964,56.717,126.686,126.686,126.686c0.011,0,0.022-0.001,0.033-0.001
		s0.022,0.001,0.033,0.001c69.969,0,126.686-56.722,126.686-126.686c0-16.426-3.127-32.121-8.817-46.524l119.841-194.027
		C498.29,120.179,497.408,110.692,491.581,104.292z M256,120.954h73.585l-73.438,120.457c-0.038,0-0.075-0.002-0.113-0.002
		c-0.011,0-0.022,0-0.033,0s-0.022,0-0.033,0c-0.038,0-0.075,0.002-0.113,0.002l-73.438-120.457H256z M160.792,284.492
		L58.944,119.598l46.248-50.788L214.63,248.313C193.638,255.557,175.148,268.161,160.792,284.492z M285.539,447.124h-44.838v-86.442
		h-35.137v-31.041c5.459,0.146,10.778-0.323,15.951-1.401c5.174-1.078,9.842-2.873,14.012-5.389
		c4.168-2.513,7.579-5.892,10.24-10.133c2.657-4.236,4.129-9.447,4.42-15.629h35.352V447.124z M351.209,284.493
		c-14.356-16.331-32.847-28.936-53.839-36.18L406.808,68.81l46.248,50.789L351.209,284.493z"/>
</g>
<g id="_x34_1">
</g>
<g id="_x34_2">
</g>
<g id="_x34_3">
</g>
<g id="_x34_4">
</g>
<g id="_x34_5">
</g>
<g id="_x34_6">
</g>
<g id="_x34_7">
</g>
<g id="_x34_8">
</g>
<g id="_x34_9">
</g>
<g id="_x35_0">
</g>
<g id="_x35_1">
</g>
<g id="_x35_2">
</g>
<g id="_x35_3">
</g>
<g id="_x35_4">
</g>
<g id="_x35_5">
</g>
<g id="_x35_6">
</g>
<g id="_x35_7">
</g>
<g id="_x35_8">
</g>
<g id="_x35_9">
</g>
<g id="_x36_0">
</g>
<g id="_x36_1">
</g>
<g id="_x36_2">
</g>
<g id="_x36_3">
</g>
<g id="_x36_4">
</g>
<g id="_x36_5">
</g>
<g id="_x36_6">
</g>
<g id="_x36_7">
</g>
<g id="_x36_8">
</g>
<g id="_x36_9">
</g>
<g id="_x37_0">
</g>
</svg>
