<?xml version="1.0" encoding="iso-8859-1"?>
<!-- Generator: Adobe Illustrator 16.0.0, SVG Export Plug-In . SVG Version: 6.00 Build 0)  -->
<!DOCTYPE svg PUBLIC "-//W3C//DTD SVG 1.1//EN" "http://www.w3.org/Graphics/SVG/1.1/DTD/svg11.dtd">
<svg version="1.1" xmlns="http://www.w3.org/2000/svg" xmlns:xlink="http://www.w3.org/1999/xlink" x="0px" y="0px" width="512px"
	 height="512px" viewBox="0 0 512 512" style="enable-background:new 0 0 512 512;" xml:space="preserve">
<g id="Guides_For_Artboard">
</g>
<g id="_x30_">
</g>
<g id="_x31_">
</g>
<g id="_x32_">
</g>
<g id="_x33_">
</g>
<g id="_x34_">
</g>
<g id="_x35_">
</g>
<g id="_x36_">
</g>
<g id="_x37_">
</g>
<g id="_x38_">
</g>
<g id="_x39_">
</g>
<g id="_x31_0">
</g>
<g id="_x31_1">
</g>
<g id="_x31_2">
</g>
<g id="_x31_3">
</g>
<g id="_x31_4">
</g>
<g id="_x31_5">
</g>
<g id="_x31_6">
</g>
<g id="_x31_7">
</g>
<g id="_x31_8">
</g>
<g id="_x31_9">
</g>
<g id="_x32_0">
</g>
<g id="_x32_1">
</g>
<g id="_x32_2">
</g>
<g id="_x32_3">
</g>
<g id="_x32_4">
</g>
<g id="_x32_5">
</g>
<g id="_x32_6">
</g>
<g id="_x32_7">
</g>
<g id="_x32_8">
</g>
<g id="_x32_9">
</g>
<g id="_x33_0">
</g>
<g id="_x33_1">
</g>
<g id="_x33_2">
</g>
<g id="_x33_3">
</g>
<g id="_x33_4">
</g>
<g id="_x33_5">
</g>
<g id="_x33_6">
</g>
<g id="_x33_7">
</g>
<g id="_x33_8">
</g>
<g id="_x33_9">
</g>
<g id="_x34_0">
</g>
<g id="_x34_1">
</g>
<g id="_x34_2">
</g>
<g id="_x34_3">
</g>
<g id="_x34_4">
</g>
<g id="_x34_5">
</g>
<g id="_x34_6">
</g>
<g id="_x34_7">
</g>
<g id="_x34_8">
</g>
<g id="_x34_9">
</g>
<g id="_x35_0">
</g>
<g id="_x35_1">
</g>
<g id="_x35_2">
</g>
<g id="_x35_3">
</g>
<g id="_x35_4">
</g>
<g id="_x35_5">
</g>
<g id="_x35_6">
</g>
<g id="_x35_7">
</g>
<g id="_x35_8">
</g>
<g id="_x35_9">
</g>
<g id="_x36_0">
</g>
<g id="_x36_1">
</g>
<g id="_x36_2">
</g>
<g id="_x36_3">
</g>
<g id="_x36_4">
</g>
<g id="_x36_5">
</g>
<g id="_x36_6">
</g>
<g id="_x36_7">
	<g>
		<path d="M249.625,146.801c24.049,0,43.547-19.496,43.547-43.543c0-24.049-19.498-43.541-43.547-43.541
			c-24.051,0-43.541,19.492-43.541,43.541C206.084,127.305,225.574,146.801,249.625,146.801z"/>
		<path d="M198.129,73.035c3.008,0,5.449-2.44,5.449-5.449V56.621c3.029-0.745,5.283-3.458,5.283-6.715
			c0-3.26-2.254-5.973-5.283-6.716V32.224c0-3.009-2.441-5.448-5.449-5.448s-5.449,2.439-5.449,5.448v35.362
			C192.68,70.595,195.121,73.035,198.129,73.035z"/>
		<path d="M99.123,26.775c-3.006,0-5.449,2.439-5.449,5.448V43.19c-3.027,0.743-5.283,3.456-5.283,6.716
			c0,3.257,2.256,5.97,5.283,6.715v10.965c0,3.009,2.443,5.449,5.449,5.449c3.008,0,5.449-2.44,5.449-5.449V32.224
			C104.572,29.215,102.131,26.775,99.123,26.775z"/>
		<path d="M418.326,106.77V95.804c0-3.009-2.441-5.449-5.449-5.449s-5.449,2.44-5.449,5.449v35.361c0,3.01,2.441,5.449,5.449,5.449
			s5.449-2.439,5.449-5.449V120.2c3.029-0.744,5.283-3.457,5.283-6.716C423.609,110.227,421.355,107.514,418.326,106.77z"/>
		<path d="M394.385,79.142c-4.469,0-8.09,3.622-8.09,8.091v18.174l-8.197-0.013c-3.34-6.998-11.068-11.163-19.033-9.652
			c-5.686,1.075-10.189,4.803-12.516,9.652h-6.094V87.232c0-4.469-3.621-8.091-8.09-8.091s-8.092,3.622-8.092,8.091v52.506
			c0,4.469,3.623,8.091,8.092,8.091s8.09-3.622,8.09-8.091v-18.162h5.459c0.498,3.971,1.035,9.704,0.994,15.761
			c-0.111,15.872-3.936,19.575-3.9,19.575c-0.006,0.001-0.123,0.043-0.404,0.072l-62.008,6.471
			c-8.109-6.002-21.754-9.733-32.191-9.733c-8.119,0-22.258,3.896-29.275,7.803c-6.258-3.872-14.229-9.078-22.26-15.067
			c-22.748-16.971-31.465-29.584-32.016-35.228c-1.939-19.892-0.785-41.289,0.186-53.233l6.508-0.043v18.206
			c0,4.468,3.621,8.09,8.088,8.09c4.471,0,8.094-3.622,8.094-8.09V23.652c0-4.468-3.623-8.09-8.094-8.09
			c-4.467,0-8.088,3.622-8.088,8.09v18.129l-6.086,0.033c-1.811-6.658-7.482-11.894-14.756-12.787
			c-8.752-1.073-16.768,4.519-19.008,12.787h-5.99V23.652c0-4.468-3.623-8.09-8.09-8.09c-4.469,0-8.092,3.622-8.092,8.09v52.507
			c0,4.468,3.623,8.09,8.092,8.09c4.467,0,8.09-3.622,8.09-8.09V57.996h4.201c-1.02,13.66-1.959,35.538,0.1,56.632
			c1.813,18.601,16.836,38.192,45.926,59.894c10.234,7.635,20.293,14.079,27.6,18.513l0.086,284.958
			c0,10.205,8.262,18.445,18.43,18.445c10.191,0,18.434-8.256,18.434-18.445V347.848c2.586,0.477,5.205,0.74,7.914,0.74
			c2.705,0,5.332-0.264,7.896-0.74v130.145c0,10.198,8.25,18.445,18.43,18.445c10.182,0,18.434-8.263,18.434-18.445l0.016-280.646
			l53.064-5.538c10.25-1.07,18.934-6.029,25.113-14.344c11.686-15.719,11.414-40.658,9.861-55.889l5.084,0.002v18.16
			c0,4.469,3.621,8.091,8.09,8.091s8.092-3.622,8.092-8.091V87.232C402.477,82.764,398.854,79.142,394.385,79.142z"/>
		<path d="M308.422,120.2v10.965c0,3.01,2.443,5.449,5.449,5.449c3.008,0,5.449-2.439,5.449-5.449V95.804
			c0-3.009-2.441-5.449-5.449-5.449c-3.006,0-5.449,2.44-5.449,5.449v10.966c-3.027,0.744-5.283,3.457-5.283,6.715
			C303.139,116.743,305.395,119.456,308.422,120.2z"/>
	</g>
</g>
<g id="_x36_8">
</g>
<g id="_x36_9">
</g>
<g id="_x37_0">
</g>
</svg>
