<?xml version="1.0" encoding="iso-8859-1"?>
<!-- Generator: Adobe Illustrator 16.0.0, SVG Export Plug-In . SVG Version: 6.00 Build 0)  -->
<!DOCTYPE svg PUBLIC "-//W3C//DTD SVG 1.1//EN" "http://www.w3.org/Graphics/SVG/1.1/DTD/svg11.dtd">
<svg version="1.1" xmlns="http://www.w3.org/2000/svg" xmlns:xlink="http://www.w3.org/1999/xlink" x="0px" y="0px" width="512px"
	 height="512px" viewBox="0 0 512 512" style="enable-background:new 0 0 512 512;" xml:space="preserve">
<g id="Guides_For_Artboard">
</g>
<g id="_x30_">
</g>
<g id="_x31_">
</g>
<g id="_x32_">
</g>
<g id="_x33_">
</g>
<g id="_x34_">
</g>
<g id="_x35_">
</g>
<g id="_x36_">
</g>
<g id="_x37_">
</g>
<g id="_x38_">
</g>
<g id="_x39_">
</g>
<g id="_x31_0">
</g>
<g id="_x31_1">
</g>
<g id="_x31_2">
</g>
<g id="_x31_3">
</g>
<g id="_x31_4">
</g>
<g id="_x31_5">
</g>
<g id="_x31_6">
</g>
<g id="_x31_7">
</g>
<g id="_x31_8">
</g>
<g id="_x31_9">
</g>
<g id="_x32_0">
</g>
<g id="_x32_1">
</g>
<g id="_x32_2">
</g>
<g id="_x32_3">
</g>
<g id="_x32_4">
</g>
<g id="_x32_5">
</g>
<g id="_x32_6">
</g>
<g id="_x32_7">
</g>
<g id="_x32_8">
</g>
<g id="_x32_9">
</g>
<g id="_x33_0">
</g>
<g id="_x33_1">
</g>
<g id="_x33_2">
</g>
<g id="_x33_3">
</g>
<g id="_x33_4">
</g>
<g id="_x33_5">
</g>
<g id="_x33_6">
</g>
<g id="_x33_7">
</g>
<g id="_x33_8">
</g>
<g id="_x33_9">
</g>
<g id="_x34_0">
</g>
<g id="_x34_1">
</g>
<g id="_x34_2">
</g>
<g id="_x34_3">
</g>
<g id="_x34_4">
</g>
<g id="_x34_5">
</g>
<g id="_x34_6">
</g>
<g id="_x34_7">
</g>
<g id="_x34_8">
</g>
<g id="_x34_9">
</g>
<g id="_x35_0">
</g>
<g id="_x35_1">
</g>
<g id="_x35_2">
</g>
<g id="_x35_3">
</g>
<g id="_x35_4">
</g>
<g id="_x35_5">
</g>
<g id="_x35_6">
</g>
<g id="_x35_7">
</g>
<g id="_x35_8">
</g>
<g id="_x35_9">
</g>
<g id="_x36_0">
</g>
<g id="_x36_1">
</g>
<g id="_x36_2">
</g>
<g id="_x36_3">
</g>
<g id="_x36_4">
</g>
<g id="_x36_5">
</g>
<g id="_x36_6">
</g>
<g id="_x36_7">
</g>
<g id="_x36_8">
</g>
<g id="_x36_9">
</g>
<g id="_x37_0">
	<g>
		<circle cx="174.172" cy="97.934" r="83.459"/>
		<path d="M395.963,146.934c-43.277,0-78.486,35.209-78.486,78.488c0,12.521,2.963,24.361,8.201,34.875l-40.447,40.064
			c0,0-60.969-67.929-76.977-82.275s-39.84-24.049-64.146-24.049c-47.967,0-89.123,35.537-96.174,82.834
			c-0.121,0.682-0.219,1.371-0.285,2.07l-0.01,0.113c-0.291,2.275-0.492,4.398-0.617,6.461l-9.363,185.717
			c-0.641,6.736,1.588,13.432,6.143,18.434c4.553,5.006,11.002,7.859,17.771,7.859h134.336c12.186,0,22.441-9.123,23.861-21.227
			l9.713-130.066c0.004-0.039,0.01-0.078,0.014-0.119l0.201-1.805c0,0,39.995,36.557,54.091,36.557
			c9.092,0,17.405-3.113,23.612-9.262l70.484-69.82c5.809,1.375,11.855,2.125,18.078,2.125c43.277,0,78.486-35.209,78.486-78.486
			C474.449,182.143,439.24,146.934,395.963,146.934z M395.963,246.947c-11.871,0-21.527-9.656-21.527-21.525
			c0-11.871,9.656-21.527,21.527-21.527c11.869,0,21.525,9.656,21.525,21.527C417.488,237.291,407.832,246.947,395.963,246.947z"/>
	</g>
</g>
</svg>
