<?xml version="1.0" encoding="iso-8859-1"?>
<!-- Generator: Adobe Illustrator 16.0.0, SVG Export Plug-In . SVG Version: 6.00 Build 0)  -->
<!DOCTYPE svg PUBLIC "-//W3C//DTD SVG 1.1//EN" "http://www.w3.org/Graphics/SVG/1.1/DTD/svg11.dtd">
<svg version="1.1" xmlns="http://www.w3.org/2000/svg" xmlns:xlink="http://www.w3.org/1999/xlink" x="0px" y="0px" width="512px"
	 height="512px" viewBox="0 0 512 512" style="enable-background:new 0 0 512 512;" xml:space="preserve">
<g id="Guides_For_Artboard">
</g>
<g id="_x30_">
</g>
<g id="_x31_">
</g>
<g id="_x32_">
</g>
<g id="_x33_">
</g>
<g id="_x34_">
</g>
<g id="_x35_">
</g>
<g id="_x36_">
</g>
<g id="_x37_">
</g>
<g id="_x38_">
</g>
<g id="_x39_">
</g>
<g id="_x31_0">
</g>
<g id="_x31_1">
	<g>
		<path d="M168.599,310.401c-7.682,0-13.91,6.228-13.91,13.912c0,7.684,6.228,13.912,13.91,13.912
			c7.685,0,13.914-6.228,13.914-13.912C182.512,316.629,176.284,310.401,168.599,310.401z"/>
		<path d="M490.103,59.027l-4.917-4.917c-5.434-5.434-14.239-5.432-19.673,0l-36.921,36.922h-80.609
			c-7.684,0-13.91,6.226-13.91,13.91v6.955c0,7.683,6.226,13.91,13.91,13.91h31.149L310.657,290.18L210.02,228.5
			c-4.514-3.253-9.281-6.175-14.263-8.743l-0.299-0.155c-8.622-4.41-17.897-7.707-27.62-9.799l-20.829-49.222
			c0,0,31.299-5.07,41.007-6.956c9.708-1.884,13.91-6.226,13.91-13.91V119.43c0-7.682-6.226-13.91-13.91-13.91H55.87
			c-7.683,0-13.91,6.228-13.91,13.91v27.242c0,7.684,6.227,13.91,13.91,13.91h64.971l19.778,46.744
			c-60.816,1.831-109.562,51.67-109.562,112.931c0,49.638,32.014,91.757,76.512,106.934H25.732c-7.684,0-13.91,6.228-13.91,13.91
			v6.956c0,7.681,6.227,13.91,13.91,13.91h372.094c7.682,0,13.91-6.229,13.91-13.91V441.1c0-7.682-6.228-13.91-13.91-13.91h-58.924
			c22.526-10.379,38.167-33.118,38.167-59.553c0-23.456-12.344-43.981-30.853-55.589l0.018-0.065l-14.776-9.057l73.785-177.12
			h31.415c0.097,0,0.186-0.025,0.28-0.029c3.659,0.078,7.34-1.253,10.133-4.046L490.103,78.7
			C495.536,73.267,495.536,64.46,490.103,59.027z M223.081,414.294h-84.619c-5.282,0-9.563-4.281-9.563-9.563
			c0-5.283,4.28-9.563,9.563-9.563h16.284v-33.654c-15.093-5.622-25.847-20.148-25.847-37.2c0-21.926,17.774-39.701,39.699-39.701
			c21.928,0,39.703,17.774,39.703,39.701c0,17.034-10.737,31.535-25.805,37.164v33.69h40.585c5.282,0,9.563,4.28,9.563,9.563
			C232.644,410.013,228.363,414.294,223.081,414.294z"/>
	</g>
</g>
<g id="_x31_2">
</g>
<g id="_x31_3">
</g>
<g id="_x31_4">
</g>
<g id="_x31_5">
</g>
<g id="_x31_6">
</g>
<g id="_x31_7">
</g>
<g id="_x31_8">
</g>
<g id="_x31_9">
</g>
<g id="_x32_0">
</g>
<g id="_x32_1">
</g>
<g id="_x32_2">
</g>
<g id="_x32_3">
</g>
<g id="_x32_4">
</g>
<g id="_x32_5">
</g>
<g id="_x32_6">
</g>
<g id="_x32_7">
</g>
<g id="_x32_8">
</g>
<g id="_x32_9">
</g>
<g id="_x33_0">
</g>
<g id="_x33_1">
</g>
<g id="_x33_2">
</g>
<g id="_x33_3">
</g>
<g id="_x33_4">
</g>
<g id="_x33_5">
</g>
<g id="_x33_6">
</g>
<g id="_x33_7">
</g>
<g id="_x33_8">
</g>
<g id="_x33_9">
</g>
<g id="_x34_0">
</g>
<g id="_x34_1">
</g>
<g id="_x34_2">
</g>
<g id="_x34_3">
</g>
<g id="_x34_4">
</g>
<g id="_x34_5">
</g>
<g id="_x34_6">
</g>
<g id="_x34_7">
</g>
<g id="_x34_8">
</g>
<g id="_x34_9">
</g>
<g id="_x35_0">
</g>
<g id="_x35_1">
</g>
<g id="_x35_2">
</g>
<g id="_x35_3">
</g>
<g id="_x35_4">
</g>
<g id="_x35_5">
</g>
<g id="_x35_6">
</g>
<g id="_x35_7">
</g>
<g id="_x35_8">
</g>
<g id="_x35_9">
</g>
<g id="_x36_0">
</g>
<g id="_x36_1">
</g>
<g id="_x36_2">
</g>
<g id="_x36_3">
</g>
<g id="_x36_4">
</g>
<g id="_x36_5">
</g>
<g id="_x36_6">
</g>
<g id="_x36_7">
</g>
<g id="_x36_8">
</g>
<g id="_x36_9">
</g>
<g id="_x37_0">
</g>
</svg>
