<?xml version="1.0" encoding="iso-8859-1"?>
<!-- Generator: Adobe Illustrator 16.0.0, SVG Export Plug-In . SVG Version: 6.00 Build 0)  -->
<!DOCTYPE svg PUBLIC "-//W3C//DTD SVG 1.1//EN" "http://www.w3.org/Graphics/SVG/1.1/DTD/svg11.dtd">
<svg version="1.1" xmlns="http://www.w3.org/2000/svg" xmlns:xlink="http://www.w3.org/1999/xlink" x="0px" y="0px" width="512px"
	 height="512px" viewBox="0 0 512 512" style="enable-background:new 0 0 512 512;" xml:space="preserve">
<g id="Guides_For_Artboard">
</g>
<g id="_x30_">
</g>
<g id="_x31_">
</g>
<g id="_x32_">
</g>
<g id="_x33_">
</g>
<g id="_x34_">
</g>
<g id="_x35_">
</g>
<g id="_x36_">
</g>
<g id="_x37_">
</g>
<g id="_x38_">
</g>
<g id="_x39_">
</g>
<g id="_x31_0">
</g>
<g id="_x31_1">
</g>
<g id="_x31_2">
</g>
<g id="_x31_3">
</g>
<g id="_x31_4">
</g>
<g id="_x31_5">
</g>
<g id="_x31_6">
</g>
<g id="_x31_7">
</g>
<g id="_x31_8">
</g>
<g id="_x31_9">
</g>
<g id="_x32_0">
</g>
<g id="_x32_1">
</g>
<g id="_x32_2">
</g>
<g id="_x32_3">
</g>
<g id="_x32_4">
</g>
<g id="_x32_5">
</g>
<g id="_x32_6">
</g>
<g id="_x32_7">
</g>
<g id="_x32_8">
</g>
<g id="_x32_9">
</g>
<g id="_x33_0">
</g>
<g id="_x33_1">
</g>
<g id="_x33_2">
</g>
<g id="_x33_3">
</g>
<g id="_x33_4">
</g>
<g id="_x33_5">
</g>
<g id="_x33_6">
</g>
<g id="_x33_7">
</g>
<g id="_x33_8">
</g>
<g id="_x33_9">
</g>
<g id="_x34_0">
</g>
<g id="_x34_1">
</g>
<g id="_x34_2">
</g>
<g id="_x34_3">
</g>
<g id="_x34_4">
</g>
<g id="_x34_5">
</g>
<g id="_x34_6">
</g>
<g id="_x34_7">
</g>
<g id="_x34_8">
</g>
<g id="_x34_9">
</g>
<g id="_x35_0">
</g>
<g id="_x35_1">
</g>
<g id="_x35_2">
</g>
<g id="_x35_3">
</g>
<g id="_x35_4">
</g>
<g id="_x35_5">
</g>
<g id="_x35_6">
</g>
<g id="_x35_7">
</g>
<g id="_x35_8">
</g>
<g id="_x35_9">
</g>
<g id="_x36_0">
</g>
<g id="_x36_1">
</g>
<g id="_x36_2">
</g>
<g id="_x36_3">
</g>
<g id="_x36_4">
</g>
<g id="_x36_5">
	<g>
		<circle cx="256" cy="145.417" r="50.279"/>
		<path d="M470.486,42.893c-4.006,0-7.57,1.853-9.906,4.744V39.16c0-7.026-5.691-12.722-12.719-12.722
			c-5.141,0-9.563,3.05-11.568,7.437v-6.029c0-7.024-5.695-12.72-12.719-12.72c-7.029,0-12.725,5.696-12.725,12.72v39.706h-46.912
			c-3.031-6.855-10.152-11.32-18.016-10.52c-6.555,0.688-11.824,4.895-14.314,10.52H180.395c-2.488-5.625-7.76-9.832-14.314-10.52
			c-7.865-0.801-14.984,3.665-18.016,10.52h-46.912V27.845c0-7.024-5.697-12.72-12.725-12.72c-7.023,0-12.717,5.696-12.717,12.72
			v6.029c-2.01-4.387-6.432-7.437-11.57-7.437c-7.025,0-12.721,5.695-12.721,12.722v8.478c-2.334-2.892-5.9-4.744-9.904-4.744
			c-7.025,0-12.725,5.695-12.725,12.722v49.313c0,7.024,5.699,12.72,12.725,12.72c4.004,0,7.57-1.852,9.904-4.745v8.48
			c0,7.024,5.695,12.72,12.721,12.72c5.139,0,9.561-3.05,11.57-7.437v6.028c0,7.024,5.693,12.72,12.717,12.72
			c7.027,0,12.725-5.695,12.725-12.72V92.991h43.855c-1.734,31.823-1.367,87.949,19.947,111.313
			c16.098,17.644,33.611,27.786,45.289,33.155v90.037c-25.604,7.097-45.365,21.19-62.311,43.78
			c-22.859,30.483-23.553,90.42-23.461,102.127c0.102,13.002,10.676,23.472,23.652,23.472c0.063,0,0.133,0,0.193,0
			c13.07-0.104,23.576-10.78,23.475-23.849c-0.176-21.824,4.152-60.232,13.996-73.356c14.041-18.712,30.723-30.336,70.211-30.452
			c39.496,0.115,56.172,11.74,70.213,30.452c9.842,13.124,14.17,51.532,13.994,73.356c-0.1,13.068,10.404,23.744,23.475,23.849
			c0.063,0,0.131,0,0.193,0c12.979,0,23.553-10.47,23.652-23.472c0.094-11.707-0.6-71.644-23.459-102.127
			c-16.945-22.59-36.709-36.683-62.311-43.78v-90.037c11.676-5.37,29.191-15.512,45.287-33.155
			c21.316-23.364,21.682-79.49,19.949-111.313h43.855v39.706c0,7.024,5.695,12.72,12.725,12.72c7.023,0,12.719-5.695,12.719-12.72
			v-6.028c2.006,4.386,6.428,7.437,11.568,7.437c7.027,0,12.719-5.696,12.719-12.72v-8.48c2.336,2.893,5.9,4.745,9.906,4.745
			c7.027,0,12.723-5.696,12.723-12.72V55.615C483.209,48.588,477.514,42.893,470.486,42.893z M320.828,180.386
			c-11.121,12.19-29.635,23.104-31.471,23.689s-12.715-2.748-33.357-2.748c-20.645,0-30.07,2.996-33.357,2.748
			s-20.348-11.499-31.471-23.689c-9.701-10.633-12.746-50.6-10.621-87.395h150.898C333.576,129.786,330.529,169.753,320.828,180.386
			z"/>
	</g>
</g>
<g id="_x36_6">
</g>
<g id="_x36_7">
</g>
<g id="_x36_8">
</g>
<g id="_x36_9">
</g>
<g id="_x37_0">
</g>
</svg>
