<?xml version="1.0" encoding="iso-8859-1"?>
<!-- Generator: Adobe Illustrator 16.0.0, SVG Export Plug-In . SVG Version: 6.00 Build 0)  -->
<!DOCTYPE svg PUBLIC "-//W3C//DTD SVG 1.1//EN" "http://www.w3.org/Graphics/SVG/1.1/DTD/svg11.dtd">
<svg version="1.1" xmlns="http://www.w3.org/2000/svg" xmlns:xlink="http://www.w3.org/1999/xlink" x="0px" y="0px" width="512px"
	 height="512px" viewBox="0 0 512 512" style="enable-background:new 0 0 512 512;" xml:space="preserve">
<g id="Guides_For_Artboard_1_">
</g>
<g id="Guides_For_Artboard">
</g>
<g id="_x30_">
</g>
<g id="_x31_">
</g>
<g id="_x32_">
</g>
<g id="_x33_">
</g>
<g id="_x34_">
</g>
<g id="_x35_">
</g>
<g id="_x36_">
</g>
<g id="_x37_">
</g>
<g id="_x38_">
</g>
<g id="_x39_">
</g>
<g id="_x31_0">
</g>
<g id="_x31_1">
</g>
<g id="_x31_2">
</g>
<g id="_x31_3">
</g>
<g id="_x31_4">
</g>
<g id="_x31_5">
</g>
<g id="_x31_6">
</g>
<g id="_x31_7">
</g>
<g id="_x31_8">
</g>
<g id="_x31_9">
</g>
<g id="_x32_0">
</g>
<g id="_x32_1">
</g>
<g id="_x32_2">
</g>
<g id="_x32_3">
</g>
<g id="_x32_4">
</g>
<g id="_x32_5">
</g>
<g id="_x32_6">
</g>
<g id="_x32_7">
	<g>
		<path d="M257.989,168.279c0.085,0,0.171-0.006,0.257-0.006c0.087,0,0.172,0.006,0.258,0.006c42.464,0,76.884-34.422,76.884-76.887
			c0-42.46-34.42-76.884-76.884-76.884c-0.086,0-0.171,0.006-0.258,0.006c-0.086,0-0.171-0.006-0.257-0.006
			c-42.465,0-76.884,34.424-76.884,76.884C181.104,133.857,215.523,168.279,257.989,168.279z"/>
		<path d="M451.097,325.546l-86.702-63.042l-27.417-66.953c-5.218-12.74-17.645-20.336-30.638-20.05l-0.004-0.03h-49.479H207.38
			l-0.004,0.03c-12.994-0.286-25.419,7.31-30.638,20.05l-27.418,66.953l-86.702,63.042c-14.443,10.502-17.64,30.723-7.136,45.169
			c6.327,8.698,16.185,13.32,26.179,13.32c6.594,0,13.248-2.012,18.988-6.189l93.744-68.154l-2.389,24.674l-88.637,89.839
			c-12.297,12.795-15.765,31.698-8.809,48.027c6.955,16.328,22.987,26.926,40.735,26.926h42.368
			c-10.918-9.882-17.88-24.627-17.88-41.093c0-29.687,22.571-53.838,50.315-53.838c0,0,32.453,0,48.259,0
			c15.806,0,28.349,12.921,28.349,12.921h-76.608c-21.085,0-38.24,18.354-38.24,40.917s17.155,40.916,38.24,40.916h74.192
			c0.832-0.059,1.68-0.063,2.5-0.161h89.683c17.748,0,33.779-10.599,40.735-26.928c6.955-16.327,3.488-35.228-8.807-48.026
			l-86.707-89.951h-0.024l-2.345-24.223l93.743,68.154c5.739,4.178,12.395,6.189,18.987,6.189c9.995,0,19.852-4.622,26.18-13.32
			C468.736,356.269,465.541,336.048,451.097,325.546z"/>
	</g>
</g>
<g id="_x32_8">
</g>
<g id="_x32_9">
</g>
<g id="_x33_0">
</g>
<g id="_x33_1">
</g>
<g id="_x33_2">
</g>
<g id="_x33_3">
</g>
<g id="_x33_4">
</g>
<g id="_x33_5">
</g>
<g id="_x33_6">
</g>
<g id="_x33_7">
</g>
<g id="_x33_8">
</g>
<g id="_x33_9">
</g>
<g id="_x34_0">
</g>
<g id="_x34_1">
</g>
<g id="_x34_2">
</g>
<g id="_x34_3">
</g>
<g id="_x34_4">
</g>
<g id="_x34_5">
</g>
<g id="_x34_6">
</g>
<g id="_x34_7">
</g>
<g id="_x34_8">
</g>
<g id="_x34_9">
</g>
<g id="_x35_0">
</g>
<g id="_x35_1">
</g>
<g id="_x35_2">
</g>
<g id="_x35_3">
</g>
<g id="_x35_4">
</g>
<g id="_x35_5">
</g>
<g id="_x35_6">
</g>
<g id="_x35_7">
</g>
<g id="_x35_8">
</g>
<g id="_x35_9">
</g>
<g id="_x36_0">
</g>
<g id="_x36_1">
</g>
<g id="_x36_2">
</g>
<g id="_x36_3">
</g>
<g id="_x36_4">
</g>
<g id="_x36_5">
</g>
<g id="_x36_6">
</g>
<g id="_x36_7">
</g>
<g id="_x36_8">
</g>
<g id="_x36_9">
</g>
<g id="_x37_0">
</g>
</svg>
